{"componentChunkName":"component---packages-blog-gatsby-blog-core-src-templates-collection-tag-js","path":"/tag/business/","result":{"data":{"collectionInfo":{"id":"6f077534-6d28-59eb-986d-893bd0aafcdb","name":"#business","slug":"/tag/business/"},"posts":{"nodes":[{"id":"e7cfb2b3-5b6d-535c-8f87-8bbceb2cf6db","title":"Here’s What I’ve Learnt Over The Past Seven Years","slug":"/heres-what-ive-learnt-over-the-past-seven-years/","link":null,"excerpt":"Primo in altis pelle alumnae Lorem markdownum obvius in seque opus, est bicorni forte; laeva…","timeToRead":1,"featured":true,"thumbnailText":null,"date":"June 02, 2020","category":{"id":"1db56753-d786-579f-a7f5-7d2c14ec76e0","name":"Lumeshire","slug":"/category/lumeshire/","color":"#e78ac3","icon":"/static/62835709fda7f51d7042089caec5bc80/lumeshire.svg"},"author":null,"thumbnail":{"__typename":"ImageSharp","ImageSharp_vertical":{"layout":"constrained","backgroundColor":"#383838","images":{"fallback":{"src":"/static/7230cf5f08605b614e4396a668b68ea9/144fe/image.jpg","srcSet":"/static/7230cf5f08605b614e4396a668b68ea9/9d7b9/image.jpg 190w,\n/static/7230cf5f08605b614e4396a668b68ea9/144fe/image.jpg 380w","sizes":"(min-width: 380px) 380px, 100vw"},"sources":[{"srcSet":"/static/7230cf5f08605b614e4396a668b68ea9/228d6/image.webp 190w,\n/static/7230cf5f08605b614e4396a668b68ea9/6b99c/image.webp 380w","type":"image/webp","sizes":"(min-width: 380px) 380px, 100vw"}]},"width":380,"height":290},"ImageSharp_hero":{"layout":"constrained","backgroundColor":"#383838","images":{"fallback":{"src":"/static/7230cf5f08605b614e4396a668b68ea9/7a1ff/image.jpg","srcSet":"/static/7230cf5f08605b614e4396a668b68ea9/a6b27/image.jpg 512w,\n/static/7230cf5f08605b614e4396a668b68ea9/7a1ff/image.jpg 1024w","sizes":"(min-width: 1024px) 1024px, 100vw"},"sources":[{"srcSet":"/static/7230cf5f08605b614e4396a668b68ea9/99476/image.webp 512w,\n/static/7230cf5f08605b614e4396a668b68ea9/251f6/image.webp 1024w","type":"image/webp","sizes":"(min-width: 1024px) 1024px, 100vw"}]},"width":1600,"height":650}}},{"id":"e7e3cffe-4bcd-54e6-8ed9-846decc8d165","title":"What I Do When My Skin is Freaking Out","slug":"/what-i-do-when-my-skin-is-freaking-out/","link":null,"excerpt":"Lorem markdownum transitque nondum, Peliaeque at poterat exegit, urbis quo;\ntibi. Cursus mecum adit…","timeToRead":1,"featured":null,"thumbnailText":null,"date":"May 16, 2020","category":{"id":"5c9d0584-30c6-5861-871f-f4770cd65916","name":"Astalon","slug":"/category/astalon/","color":"#964B00","icon":"/static/44173a593af733c988ba51ffb67eeafe/astalon.svg"},"author":null,"thumbnail":{"__typename":"ImageSharp","ImageSharp_vertical":{"layout":"constrained","backgroundColor":"#587898","images":{"fallback":{"src":"/static/55660f280b8d03f8e6f75cdbe0e79ad1/144fe/image.jpg","srcSet":"/static/55660f280b8d03f8e6f75cdbe0e79ad1/9d7b9/image.jpg 190w,\n/static/55660f280b8d03f8e6f75cdbe0e79ad1/144fe/image.jpg 380w","sizes":"(min-width: 380px) 380px, 100vw"},"sources":[{"srcSet":"/static/55660f280b8d03f8e6f75cdbe0e79ad1/228d6/image.webp 190w,\n/static/55660f280b8d03f8e6f75cdbe0e79ad1/6b99c/image.webp 380w","type":"image/webp","sizes":"(min-width: 380px) 380px, 100vw"}]},"width":380,"height":290},"ImageSharp_hero":{"layout":"constrained","backgroundColor":"#587898","images":{"fallback":{"src":"/static/55660f280b8d03f8e6f75cdbe0e79ad1/fcdd8/image.jpg","srcSet":"/static/55660f280b8d03f8e6f75cdbe0e79ad1/26e55/image.jpg 768w,\n/static/55660f280b8d03f8e6f75cdbe0e79ad1/fcdd8/image.jpg 1536w","sizes":"(min-width: 1536px) 1536px, 100vw"},"sources":[{"srcSet":"/static/55660f280b8d03f8e6f75cdbe0e79ad1/8424c/image.webp 768w,\n/static/55660f280b8d03f8e6f75cdbe0e79ad1/7710d/image.webp 1536w","type":"image/webp","sizes":"(min-width: 1536px) 1536px, 100vw"}]},"width":1600,"height":650}}},{"id":"9e8c3968-5f67-578d-befd-5cad512cb729","title":"Milk Makeup IT’S HERE Here’s What I Love","slug":"/milk-makeup-its-here-heres-what-i-love/","link":null,"excerpt":"Lorem markdownum illic venturi instructa nobis Echidnae,  cum  quid magna\nfatebor. Levat placetque…","timeToRead":1,"featured":null,"thumbnailText":null,"date":"April 16, 2020","category":{"id":"5c9d0584-30c6-5861-871f-f4770cd65916","name":"Astalon","slug":"/category/astalon/","color":"#964B00","icon":"/static/44173a593af733c988ba51ffb67eeafe/astalon.svg"},"author":null,"thumbnail":{"__typename":"ImageSharp","ImageSharp_vertical":{"layout":"constrained","backgroundColor":"#382828","images":{"fallback":{"src":"/static/525ee9e4a4f14bc67c4861000f458388/144fe/image.jpg","srcSet":"/static/525ee9e4a4f14bc67c4861000f458388/9d7b9/image.jpg 190w,\n/static/525ee9e4a4f14bc67c4861000f458388/144fe/image.jpg 380w","sizes":"(min-width: 380px) 380px, 100vw"},"sources":[{"srcSet":"/static/525ee9e4a4f14bc67c4861000f458388/228d6/image.webp 190w,\n/static/525ee9e4a4f14bc67c4861000f458388/6b99c/image.webp 380w","type":"image/webp","sizes":"(min-width: 380px) 380px, 100vw"}]},"width":380,"height":290},"ImageSharp_hero":{"layout":"constrained","backgroundColor":"#382828","images":{"fallback":{"src":"/static/525ee9e4a4f14bc67c4861000f458388/7a1ff/image.jpg","srcSet":"/static/525ee9e4a4f14bc67c4861000f458388/a6b27/image.jpg 512w,\n/static/525ee9e4a4f14bc67c4861000f458388/7a1ff/image.jpg 1024w","sizes":"(min-width: 1024px) 1024px, 100vw"},"sources":[{"srcSet":"/static/525ee9e4a4f14bc67c4861000f458388/99476/image.webp 512w,\n/static/525ee9e4a4f14bc67c4861000f458388/251f6/image.webp 1024w","type":"image/webp","sizes":"(min-width: 1024px) 1024px, 100vw"}]},"width":1600,"height":650}}},{"id":"b3936be8-363f-53aa-a5c3-8c8560ba53b2","title":"My Current Routine & Top Five Skincare Tips","slug":"/my-current-routine-and-top-five-skincare-tips/","link":null,"excerpt":"Lorem markdownum illic venturi instructa nobis Echidnae,  cum  quid magna\nfatebor. Levat placetque…","timeToRead":1,"featured":null,"thumbnailText":null,"date":"April 16, 2020","category":{"id":"5c9d0584-30c6-5861-871f-f4770cd65916","name":"Astalon","slug":"/category/astalon/","color":"#964B00","icon":"/static/44173a593af733c988ba51ffb67eeafe/astalon.svg"},"author":null,"thumbnail":{"__typename":"ImageSharp","ImageSharp_vertical":{"layout":"constrained","backgroundColor":"#282818","images":{"fallback":{"src":"/static/ab377f01de07f6bb3cf45a7f72183767/144fe/image.jpg","srcSet":"/static/ab377f01de07f6bb3cf45a7f72183767/9d7b9/image.jpg 190w,\n/static/ab377f01de07f6bb3cf45a7f72183767/144fe/image.jpg 380w","sizes":"(min-width: 380px) 380px, 100vw"},"sources":[{"srcSet":"/static/ab377f01de07f6bb3cf45a7f72183767/228d6/image.webp 190w,\n/static/ab377f01de07f6bb3cf45a7f72183767/6b99c/image.webp 380w","type":"image/webp","sizes":"(min-width: 380px) 380px, 100vw"}]},"width":380,"height":290},"ImageSharp_hero":{"layout":"constrained","backgroundColor":"#282818","images":{"fallback":{"src":"/static/ab377f01de07f6bb3cf45a7f72183767/7a1ff/image.jpg","srcSet":"/static/ab377f01de07f6bb3cf45a7f72183767/a6b27/image.jpg 512w,\n/static/ab377f01de07f6bb3cf45a7f72183767/7a1ff/image.jpg 1024w","sizes":"(min-width: 1024px) 1024px, 100vw"},"sources":[{"srcSet":"/static/ab377f01de07f6bb3cf45a7f72183767/99476/image.webp 512w,\n/static/ab377f01de07f6bb3cf45a7f72183767/251f6/image.webp 1024w","type":"image/webp","sizes":"(min-width: 1024px) 1024px, 100vw"}]},"width":1600,"height":650}}},{"id":"8819dc56-1c10-5af1-88ae-6d102dfacbcb","title":"The Glowy Skin Recipe Life Skincare & Makeup","slug":"/the-glowy-skin-recipe-life-skincare-and-makeup/","link":null,"excerpt":"Lorem markdownum illic venturi instructa nobis Echidnae,  cum  quid magna\nfatebor. Levat placetque…","timeToRead":1,"featured":null,"thumbnailText":null,"date":"April 16, 2020","category":{"id":"5c9d0584-30c6-5861-871f-f4770cd65916","name":"Astalon","slug":"/category/astalon/","color":"#964B00","icon":"/static/44173a593af733c988ba51ffb67eeafe/astalon.svg"},"author":null,"thumbnail":{"__typename":"ImageSharp","ImageSharp_vertical":{"layout":"constrained","backgroundColor":"#080808","images":{"fallback":{"src":"/static/44f19c829ff4f5b71b46a3bfb77fddff/144fe/image.jpg","srcSet":"/static/44f19c829ff4f5b71b46a3bfb77fddff/9d7b9/image.jpg 190w,\n/static/44f19c829ff4f5b71b46a3bfb77fddff/144fe/image.jpg 380w","sizes":"(min-width: 380px) 380px, 100vw"},"sources":[{"srcSet":"/static/44f19c829ff4f5b71b46a3bfb77fddff/228d6/image.webp 190w,\n/static/44f19c829ff4f5b71b46a3bfb77fddff/6b99c/image.webp 380w","type":"image/webp","sizes":"(min-width: 380px) 380px, 100vw"}]},"width":380,"height":290},"ImageSharp_hero":{"layout":"constrained","backgroundColor":"#080808","images":{"fallback":{"src":"/static/44f19c829ff4f5b71b46a3bfb77fddff/7a1ff/image.jpg","srcSet":"/static/44f19c829ff4f5b71b46a3bfb77fddff/a6b27/image.jpg 512w,\n/static/44f19c829ff4f5b71b46a3bfb77fddff/7a1ff/image.jpg 1024w","sizes":"(min-width: 1024px) 1024px, 100vw"},"sources":[{"srcSet":"/static/44f19c829ff4f5b71b46a3bfb77fddff/99476/image.webp 512w,\n/static/44f19c829ff4f5b71b46a3bfb77fddff/251f6/image.webp 1024w","type":"image/webp","sizes":"(min-width: 1024px) 1024px, 100vw"}]},"width":1600,"height":650}}},{"id":"6612bd7d-a76e-5a40-8257-0cf3e2920ef9","title":"The Best Beauty Products That I’ve Discovered In 2019","slug":"/the-best-beauty-products-that-ive-discovered-in-2019/","link":null,"excerpt":"Lorem markdownum transitque nondum, Peliaeque at poterat exegit, urbis quo;\ntibi. Cursus mecum adit…","timeToRead":1,"featured":null,"thumbnailText":null,"date":"April 16, 2020","category":{"id":"5c9d0584-30c6-5861-871f-f4770cd65916","name":"Astalon","slug":"/category/astalon/","color":"#964B00","icon":"/static/44173a593af733c988ba51ffb67eeafe/astalon.svg"},"author":null,"thumbnail":{"__typename":"ImageSharp","ImageSharp_vertical":{"layout":"constrained","backgroundColor":"#080808","images":{"fallback":{"src":"/static/6ab6b76bd8c1ee81842f72641ebcd3ee/144fe/image.jpg","srcSet":"/static/6ab6b76bd8c1ee81842f72641ebcd3ee/9d7b9/image.jpg 190w,\n/static/6ab6b76bd8c1ee81842f72641ebcd3ee/144fe/image.jpg 380w","sizes":"(min-width: 380px) 380px, 100vw"},"sources":[{"srcSet":"/static/6ab6b76bd8c1ee81842f72641ebcd3ee/228d6/image.webp 190w,\n/static/6ab6b76bd8c1ee81842f72641ebcd3ee/6b99c/image.webp 380w","type":"image/webp","sizes":"(min-width: 380px) 380px, 100vw"}]},"width":380,"height":290},"ImageSharp_hero":{"layout":"constrained","backgroundColor":"#080808","images":{"fallback":{"src":"/static/6ab6b76bd8c1ee81842f72641ebcd3ee/7a1ff/image.jpg","srcSet":"/static/6ab6b76bd8c1ee81842f72641ebcd3ee/a6b27/image.jpg 512w,\n/static/6ab6b76bd8c1ee81842f72641ebcd3ee/7a1ff/image.jpg 1024w","sizes":"(min-width: 1024px) 1024px, 100vw"},"sources":[{"srcSet":"/static/6ab6b76bd8c1ee81842f72641ebcd3ee/99476/image.webp 512w,\n/static/6ab6b76bd8c1ee81842f72641ebcd3ee/251f6/image.webp 1024w","type":"image/webp","sizes":"(min-width: 1024px) 1024px, 100vw"}]},"width":1600,"height":650}}}],"pageInfo":{"pageCount":7,"hasPreviousPage":false,"hasNextPage":true,"currentPage":1},"totalCount":38}},"pageContext":{"slug":"/tag/business/","limit":6,"skip":0,"collectionType":"{tags: {slug: SELECT}","paginatePostsPage":false,"basePath":"/","services":{"algolia":false,"mailchimp":false,"disqus":false,"graphComment":false,"facebookComment":false},"siteUrl":null,"mobileMenu":{"title":"Regions","items":[{"name":"Contian","slug":"/category/contian/"},{"name":"Astalon","slug":"/category/astalon/"},{"name":"Frostgard","slug":"/category/frostgard/"},{"name":"Elenoria","slug":"/category/elenoria/"},{"name":"Grukmar","slug":"/category/grukmar/"},{"name":"Lumeshire","slug":"/category/lumeshire/"},{"name":"StoneHeld","slug":"/category/stoneheld/"},{"name":"Umbra'kor","slug":"/category/umbrakor/"},{"name":"Wyrmreach","slug":"/category/wyrmreach/"}]},"darkMode":true,"includeExcerpt":true,"includeTimeToRead":true,"includeTableOfContents":true,"imageQuality":75}},"staticQueryHashes":["1992822086","267426511","2818472511","2918496967","4235339838","4240507859","808336098"],"slicesMap":{}}