{"componentChunkName":"component---packages-blog-gatsby-blog-core-src-templates-collection-tag-js","path":"/tag/technology/page/2/","result":{"data":{"collectionInfo":{"id":"2a22f737-aaf6-56bf-af7b-9e89abacd8b7","name":"#technology","slug":"/tag/technology/"},"posts":{"nodes":[{"id":"7dc05988-8be0-5bb6-8515-89d3f6904de2","title":"This Tik Tok Makeup Trend Apparently Yields a Flawless Finish","slug":"/this-tik-tok-makeup-trend-apparently-yields-a-flawless-finish/","link":null,"excerpt":"Lorem markdownum suarum successibus Auram illud. Aqua exegit silvae exiguam\ntempli, cui linquit…","timeToRead":1,"featured":null,"thumbnailText":null,"date":"April 16, 2020","category":{"id":"5c9d0584-30c6-5861-871f-f4770cd65916","name":"Astalon","slug":"/category/astalon/","color":"#964B00","icon":"/static/44173a593af733c988ba51ffb67eeafe/astalon.svg"},"author":null,"thumbnail":{"__typename":"ImageSharp","ImageSharp_vertical":{"layout":"constrained","backgroundColor":"#384858","images":{"fallback":{"src":"/static/71519b36d31e153f202030a692a99815/144fe/image.jpg","srcSet":"/static/71519b36d31e153f202030a692a99815/9d7b9/image.jpg 190w,\n/static/71519b36d31e153f202030a692a99815/144fe/image.jpg 380w","sizes":"(min-width: 380px) 380px, 100vw"},"sources":[{"srcSet":"/static/71519b36d31e153f202030a692a99815/228d6/image.webp 190w,\n/static/71519b36d31e153f202030a692a99815/6b99c/image.webp 380w","type":"image/webp","sizes":"(min-width: 380px) 380px, 100vw"}]},"width":380,"height":290},"ImageSharp_hero":{"layout":"constrained","backgroundColor":"#384858","images":{"fallback":{"src":"/static/71519b36d31e153f202030a692a99815/fcdd8/image.jpg","srcSet":"/static/71519b36d31e153f202030a692a99815/26e55/image.jpg 768w,\n/static/71519b36d31e153f202030a692a99815/fcdd8/image.jpg 1536w","sizes":"(min-width: 1536px) 1536px, 100vw"},"sources":[{"srcSet":"/static/71519b36d31e153f202030a692a99815/8424c/image.webp 768w,\n/static/71519b36d31e153f202030a692a99815/7710d/image.webp 1536w","type":"image/webp","sizes":"(min-width: 1536px) 1536px, 100vw"}]},"width":1600,"height":650}}},{"id":"9d946699-42e4-5c16-aba8-69d15c416206","title":"The Best Beauty Investments I’ve Ever Made","slug":"/the-best-beauty-investments-ive-ever-made/","link":null,"excerpt":"Primo in altis pelle alumnae Lorem markdownum obvius in seque opus, est bicorni forte; laeva…","timeToRead":1,"featured":null,"thumbnailText":null,"date":"April 16, 2020","category":{"id":"5c9d0584-30c6-5861-871f-f4770cd65916","name":"Astalon","slug":"/category/astalon/","color":"#964B00","icon":"/static/44173a593af733c988ba51ffb67eeafe/astalon.svg"},"author":null,"thumbnail":{"__typename":"ImageSharp","ImageSharp_vertical":{"layout":"constrained","backgroundColor":"#181818","images":{"fallback":{"src":"/static/e921b008628acfc60efd107b73006a18/144fe/image.jpg","srcSet":"/static/e921b008628acfc60efd107b73006a18/9d7b9/image.jpg 190w,\n/static/e921b008628acfc60efd107b73006a18/144fe/image.jpg 380w","sizes":"(min-width: 380px) 380px, 100vw"},"sources":[{"srcSet":"/static/e921b008628acfc60efd107b73006a18/228d6/image.webp 190w,\n/static/e921b008628acfc60efd107b73006a18/6b99c/image.webp 380w","type":"image/webp","sizes":"(min-width: 380px) 380px, 100vw"}]},"width":380,"height":290},"ImageSharp_hero":{"layout":"constrained","backgroundColor":"#181818","images":{"fallback":{"src":"/static/e921b008628acfc60efd107b73006a18/7a1ff/image.jpg","srcSet":"/static/e921b008628acfc60efd107b73006a18/a6b27/image.jpg 512w,\n/static/e921b008628acfc60efd107b73006a18/7a1ff/image.jpg 1024w","sizes":"(min-width: 1024px) 1024px, 100vw"},"sources":[{"srcSet":"/static/e921b008628acfc60efd107b73006a18/99476/image.webp 512w,\n/static/e921b008628acfc60efd107b73006a18/251f6/image.webp 1024w","type":"image/webp","sizes":"(min-width: 1024px) 1024px, 100vw"}]},"width":1600,"height":650}}},{"id":"42076b70-66dc-5ebc-85eb-59c058df9e2d","title":"Four Face Masks That I Use ALL The Time & Why I Love Them","slug":"/four-face-masks-that-i-use-all-the-time-and-why-i-love-them/","link":null,"excerpt":"Dona curvo sub evertere quam ultimus aridus Lorem markdownum , sub tecumque, posceret revertar…","timeToRead":1,"featured":null,"thumbnailText":null,"date":"April 16, 2020","category":{"id":"5c9d0584-30c6-5861-871f-f4770cd65916","name":"Astalon","slug":"/category/astalon/","color":"#964B00","icon":"/static/44173a593af733c988ba51ffb67eeafe/astalon.svg"},"author":null,"thumbnail":{"__typename":"ImageSharp","ImageSharp_vertical":{"layout":"constrained","backgroundColor":"#080808","images":{"fallback":{"src":"/static/c3d5f73d60feef71b24bae13aa0dbb98/144fe/image.jpg","srcSet":"/static/c3d5f73d60feef71b24bae13aa0dbb98/9d7b9/image.jpg 190w,\n/static/c3d5f73d60feef71b24bae13aa0dbb98/144fe/image.jpg 380w","sizes":"(min-width: 380px) 380px, 100vw"},"sources":[{"srcSet":"/static/c3d5f73d60feef71b24bae13aa0dbb98/228d6/image.webp 190w,\n/static/c3d5f73d60feef71b24bae13aa0dbb98/6b99c/image.webp 380w","type":"image/webp","sizes":"(min-width: 380px) 380px, 100vw"}]},"width":380,"height":290},"ImageSharp_hero":{"layout":"constrained","backgroundColor":"#080808","images":{"fallback":{"src":"/static/c3d5f73d60feef71b24bae13aa0dbb98/a6b27/image.jpg","srcSet":"/static/c3d5f73d60feef71b24bae13aa0dbb98/aeedf/image.jpg 256w,\n/static/c3d5f73d60feef71b24bae13aa0dbb98/a6b27/image.jpg 512w","sizes":"(min-width: 512px) 512px, 100vw"},"sources":[{"srcSet":"/static/c3d5f73d60feef71b24bae13aa0dbb98/f83be/image.webp 256w,\n/static/c3d5f73d60feef71b24bae13aa0dbb98/99476/image.webp 512w","type":"image/webp","sizes":"(min-width: 512px) 512px, 100vw"}]},"width":1600,"height":650}}},{"id":"799c2b0f-9210-59e7-91d6-13cd8d7aaa1f","title":"Capsule Wardrobe Essentials The Leopard Print Coat","slug":"/capsule-wardrobe-essentials-the-leopard-print-coat/","link":null,"excerpt":"Lorem markdownum quisque caeli, aura niger  molitur tangam  licebit, cum quo ut\nharenae pauper, eras…","timeToRead":1,"featured":null,"thumbnailText":null,"date":"April 16, 2020","category":{"id":"0df138b8-064d-50bb-aec7-ec504f8e6538","name":"Contian","slug":"/category/contian/","color":"#66c2a5","icon":"/static/a0bfcdd6eabd174cd1a0495c0bede38a/contian.svg"},"author":null,"thumbnail":{"__typename":"ImageSharp","ImageSharp_vertical":{"layout":"constrained","backgroundColor":"#181818","images":{"fallback":{"src":"/static/0ea1bc8c4bb68626402baba2d893239f/144fe/image.jpg","srcSet":"/static/0ea1bc8c4bb68626402baba2d893239f/9d7b9/image.jpg 190w,\n/static/0ea1bc8c4bb68626402baba2d893239f/144fe/image.jpg 380w","sizes":"(min-width: 380px) 380px, 100vw"},"sources":[{"srcSet":"/static/0ea1bc8c4bb68626402baba2d893239f/228d6/image.webp 190w,\n/static/0ea1bc8c4bb68626402baba2d893239f/6b99c/image.webp 380w","type":"image/webp","sizes":"(min-width: 380px) 380px, 100vw"}]},"width":380,"height":290},"ImageSharp_hero":{"layout":"constrained","backgroundColor":"#181818","images":{"fallback":{"src":"/static/0ea1bc8c4bb68626402baba2d893239f/7a1ff/image.jpg","srcSet":"/static/0ea1bc8c4bb68626402baba2d893239f/a6b27/image.jpg 512w,\n/static/0ea1bc8c4bb68626402baba2d893239f/7a1ff/image.jpg 1024w","sizes":"(min-width: 1024px) 1024px, 100vw"},"sources":[{"srcSet":"/static/0ea1bc8c4bb68626402baba2d893239f/99476/image.webp 512w,\n/static/0ea1bc8c4bb68626402baba2d893239f/251f6/image.webp 1024w","type":"image/webp","sizes":"(min-width: 1024px) 1024px, 100vw"}]},"width":1600,"height":650}}},{"id":"9f5c4d9f-cf8d-59cd-b94d-631a6f69a8b3","title":"How To Make a 10x10 Capsule Wardrobe","slug":"/how-to-make-a-10x10-capsule-wardrobe/","link":null,"excerpt":"Dona curvo sub evertere quam ultimus aridus Lorem markdownum , sub tecumque, posceret revertar…","timeToRead":1,"featured":null,"thumbnailText":null,"date":"April 16, 2020","category":{"id":"0df138b8-064d-50bb-aec7-ec504f8e6538","name":"Contian","slug":"/category/contian/","color":"#66c2a5","icon":"/static/a0bfcdd6eabd174cd1a0495c0bede38a/contian.svg"},"author":null,"thumbnail":{"__typename":"ImageSharp","ImageSharp_vertical":{"layout":"constrained","backgroundColor":"#180808","images":{"fallback":{"src":"/static/dfeac2131a229f80fb1c004384bf997d/144fe/image.jpg","srcSet":"/static/dfeac2131a229f80fb1c004384bf997d/9d7b9/image.jpg 190w,\n/static/dfeac2131a229f80fb1c004384bf997d/144fe/image.jpg 380w","sizes":"(min-width: 380px) 380px, 100vw"},"sources":[{"srcSet":"/static/dfeac2131a229f80fb1c004384bf997d/228d6/image.webp 190w,\n/static/dfeac2131a229f80fb1c004384bf997d/6b99c/image.webp 380w","type":"image/webp","sizes":"(min-width: 380px) 380px, 100vw"}]},"width":380,"height":290},"ImageSharp_hero":{"layout":"constrained","backgroundColor":"#180808","images":{"fallback":{"src":"/static/dfeac2131a229f80fb1c004384bf997d/7a1ff/image.jpg","srcSet":"/static/dfeac2131a229f80fb1c004384bf997d/a6b27/image.jpg 512w,\n/static/dfeac2131a229f80fb1c004384bf997d/7a1ff/image.jpg 1024w","sizes":"(min-width: 1024px) 1024px, 100vw"},"sources":[{"srcSet":"/static/dfeac2131a229f80fb1c004384bf997d/99476/image.webp 512w,\n/static/dfeac2131a229f80fb1c004384bf997d/251f6/image.webp 1024w","type":"image/webp","sizes":"(min-width: 1024px) 1024px, 100vw"}]},"width":1600,"height":650}}},{"id":"1d8191d3-9b5f-531b-8247-5b54f521a776","title":"A Guide To Buying Denim & My Favourite Styles","slug":"/a-guide-to-buying-denim-and-my-favourite-styles/","link":null,"excerpt":"Dona curvo sub evertere quam ultimus aridus Lorem markdownum , sub tecumque, posceret revertar…","timeToRead":1,"featured":null,"thumbnailText":null,"date":"April 16, 2020","category":{"id":"0df138b8-064d-50bb-aec7-ec504f8e6538","name":"Contian","slug":"/category/contian/","color":"#66c2a5","icon":"/static/a0bfcdd6eabd174cd1a0495c0bede38a/contian.svg"},"author":null,"thumbnail":{"__typename":"ImageSharp","ImageSharp_vertical":{"layout":"constrained","backgroundColor":"#180808","images":{"fallback":{"src":"/static/008c5d4ed4baea1c865c96ecb7c1e457/144fe/image.jpg","srcSet":"/static/008c5d4ed4baea1c865c96ecb7c1e457/9d7b9/image.jpg 190w,\n/static/008c5d4ed4baea1c865c96ecb7c1e457/144fe/image.jpg 380w","sizes":"(min-width: 380px) 380px, 100vw"},"sources":[{"srcSet":"/static/008c5d4ed4baea1c865c96ecb7c1e457/228d6/image.webp 190w,\n/static/008c5d4ed4baea1c865c96ecb7c1e457/6b99c/image.webp 380w","type":"image/webp","sizes":"(min-width: 380px) 380px, 100vw"}]},"width":380,"height":290},"ImageSharp_hero":{"layout":"constrained","backgroundColor":"#180808","images":{"fallback":{"src":"/static/008c5d4ed4baea1c865c96ecb7c1e457/7a1ff/image.jpg","srcSet":"/static/008c5d4ed4baea1c865c96ecb7c1e457/a6b27/image.jpg 512w,\n/static/008c5d4ed4baea1c865c96ecb7c1e457/7a1ff/image.jpg 1024w","sizes":"(min-width: 1024px) 1024px, 100vw"},"sources":[{"srcSet":"/static/008c5d4ed4baea1c865c96ecb7c1e457/99476/image.webp 512w,\n/static/008c5d4ed4baea1c865c96ecb7c1e457/251f6/image.webp 1024w","type":"image/webp","sizes":"(min-width: 1024px) 1024px, 100vw"}]},"width":1600,"height":650}}}],"pageInfo":{"pageCount":5,"hasPreviousPage":true,"hasNextPage":true,"currentPage":2},"totalCount":30}},"pageContext":{"slug":"/tag/technology/","limit":6,"skip":6,"collectionType":"{tags: {slug: SELECT}","paginatePostsPage":false,"basePath":"/","services":{"algolia":false,"mailchimp":false,"disqus":false,"graphComment":false,"facebookComment":false},"siteUrl":null,"mobileMenu":{"title":"Regions","items":[{"name":"Contian","slug":"/category/contian/"},{"name":"Astalon","slug":"/category/astalon/"},{"name":"Frostgard","slug":"/category/frostgard/"},{"name":"Elenoria","slug":"/category/elenoria/"},{"name":"Grukmar","slug":"/category/grukmar/"},{"name":"Lumeshire","slug":"/category/lumeshire/"},{"name":"StoneHeld","slug":"/category/stoneheld/"},{"name":"Umbra'kor","slug":"/category/umbrakor/"},{"name":"Wyrmreach","slug":"/category/wyrmreach/"}]},"darkMode":true,"includeExcerpt":true,"includeTimeToRead":true,"includeTableOfContents":true,"imageQuality":75}},"staticQueryHashes":["1992822086","267426511","2818472511","2918496967","4235339838","4240507859","808336098"],"slicesMap":{}}