{"componentChunkName":"component---packages-blog-gatsby-blog-core-src-templates-collection-tag-js","path":"/tag/business/page/4/","result":{"data":{"collectionInfo":{"id":"6f077534-6d28-59eb-986d-893bd0aafcdb","name":"#business","slug":"/tag/business/"},"posts":{"nodes":[{"id":"ae3b9577-2e77-55d5-bc94-30fde44bd826","title":"What I’ll Be Wearing This Party Season & The Festive Edit","slug":"/what-ill-be-wearing-this-party-season-and-the-festive-edit/","link":null,"excerpt":"Lorem markdownum illic venturi instructa nobis Echidnae,  cum  quid magna\nfatebor. Levat placetque…","timeToRead":1,"featured":true,"thumbnailText":null,"date":"April 16, 2020","category":{"id":"0df138b8-064d-50bb-aec7-ec504f8e6538","name":"Contian","slug":"/category/contian/","color":"#66c2a5","icon":"/static/a0bfcdd6eabd174cd1a0495c0bede38a/contian.svg"},"author":null,"thumbnail":{"__typename":"ImageSharp","ImageSharp_vertical":{"layout":"constrained","backgroundColor":"#181818","images":{"fallback":{"src":"/static/deeccaeabbd1e046ca99fb21fb8c7d70/144fe/image.jpg","srcSet":"/static/deeccaeabbd1e046ca99fb21fb8c7d70/9d7b9/image.jpg 190w,\n/static/deeccaeabbd1e046ca99fb21fb8c7d70/144fe/image.jpg 380w","sizes":"(min-width: 380px) 380px, 100vw"},"sources":[{"srcSet":"/static/deeccaeabbd1e046ca99fb21fb8c7d70/228d6/image.webp 190w,\n/static/deeccaeabbd1e046ca99fb21fb8c7d70/6b99c/image.webp 380w","type":"image/webp","sizes":"(min-width: 380px) 380px, 100vw"}]},"width":380,"height":290},"ImageSharp_hero":{"layout":"constrained","backgroundColor":"#181818","images":{"fallback":{"src":"/static/deeccaeabbd1e046ca99fb21fb8c7d70/7a1ff/image.jpg","srcSet":"/static/deeccaeabbd1e046ca99fb21fb8c7d70/a6b27/image.jpg 512w,\n/static/deeccaeabbd1e046ca99fb21fb8c7d70/7a1ff/image.jpg 1024w","sizes":"(min-width: 1024px) 1024px, 100vw"},"sources":[{"srcSet":"/static/deeccaeabbd1e046ca99fb21fb8c7d70/99476/image.webp 512w,\n/static/deeccaeabbd1e046ca99fb21fb8c7d70/251f6/image.webp 1024w","type":"image/webp","sizes":"(min-width: 1024px) 1024px, 100vw"}]},"width":1600,"height":650}}},{"id":"91aec7c2-173a-5849-b9e2-0a20cb9089b2","title":"I Tried Everything For My Quarantine Insomnia","slug":"/i-tried-everything-for-my-quarantine-insomnia/","link":null,"excerpt":"Lorem markdownum transitque nondum, Peliaeque at poterat exegit, urbis quo;\ntibi. Cursus mecum adit…","timeToRead":1,"featured":true,"thumbnailText":null,"date":"April 16, 2020","category":{"id":"e6164999-1c03-5290-8ada-6c09d59abfa8","name":"Umbra'kor","slug":"/category/umbrakor/","color":"#8da0cb","icon":"/static/20e8870720ef3d1e8449d9692e085f68/umbrakor.svg"},"author":null,"thumbnail":{"__typename":"ImageSharp","ImageSharp_vertical":{"layout":"constrained","backgroundColor":"#180808","images":{"fallback":{"src":"/static/ef039c9dd0d8e8042ea796bad211e8fe/144fe/image.jpg","srcSet":"/static/ef039c9dd0d8e8042ea796bad211e8fe/9d7b9/image.jpg 190w,\n/static/ef039c9dd0d8e8042ea796bad211e8fe/144fe/image.jpg 380w","sizes":"(min-width: 380px) 380px, 100vw"},"sources":[{"srcSet":"/static/ef039c9dd0d8e8042ea796bad211e8fe/228d6/image.webp 190w,\n/static/ef039c9dd0d8e8042ea796bad211e8fe/6b99c/image.webp 380w","type":"image/webp","sizes":"(min-width: 380px) 380px, 100vw"}]},"width":380,"height":290},"ImageSharp_hero":{"layout":"constrained","backgroundColor":"#180808","images":{"fallback":{"src":"/static/ef039c9dd0d8e8042ea796bad211e8fe/fcdd8/image.jpg","srcSet":"/static/ef039c9dd0d8e8042ea796bad211e8fe/26e55/image.jpg 768w,\n/static/ef039c9dd0d8e8042ea796bad211e8fe/fcdd8/image.jpg 1536w","sizes":"(min-width: 1536px) 1536px, 100vw"},"sources":[{"srcSet":"/static/ef039c9dd0d8e8042ea796bad211e8fe/8424c/image.webp 768w,\n/static/ef039c9dd0d8e8042ea796bad211e8fe/7710d/image.webp 1536w","type":"image/webp","sizes":"(min-width: 1536px) 1536px, 100vw"}]},"width":1600,"height":650}}},{"id":"d459da66-8153-50f1-8fc3-7988a42ea146","title":"Charlie and the Chocolate Factory Afternoon Tea","slug":"/charlie-and-the-chocolate-factory-afternoon-tea/","link":null,"excerpt":"Primo in altis pelle alumnae Lorem markdownum obvius in seque opus, est bicorni forte; laeva…","timeToRead":1,"featured":true,"thumbnailText":null,"date":"April 16, 2020","category":{"id":"e6164999-1c03-5290-8ada-6c09d59abfa8","name":"Umbra'kor","slug":"/category/umbrakor/","color":"#8da0cb","icon":"/static/20e8870720ef3d1e8449d9692e085f68/umbrakor.svg"},"author":null,"thumbnail":{"__typename":"ImageSharp","ImageSharp_vertical":{"layout":"constrained","backgroundColor":"#283838","images":{"fallback":{"src":"/static/45410a8b6421fd57ca8e6875b6546161/144fe/image.jpg","srcSet":"/static/45410a8b6421fd57ca8e6875b6546161/9d7b9/image.jpg 190w,\n/static/45410a8b6421fd57ca8e6875b6546161/144fe/image.jpg 380w","sizes":"(min-width: 380px) 380px, 100vw"},"sources":[{"srcSet":"/static/45410a8b6421fd57ca8e6875b6546161/228d6/image.webp 190w,\n/static/45410a8b6421fd57ca8e6875b6546161/6b99c/image.webp 380w","type":"image/webp","sizes":"(min-width: 380px) 380px, 100vw"}]},"width":380,"height":290},"ImageSharp_hero":{"layout":"constrained","backgroundColor":"#283838","images":{"fallback":{"src":"/static/45410a8b6421fd57ca8e6875b6546161/5e493/image.jpg","srcSet":"/static/45410a8b6421fd57ca8e6875b6546161/696c0/image.jpg 800w,\n/static/45410a8b6421fd57ca8e6875b6546161/5e493/image.jpg 1600w","sizes":"(min-width: 1600px) 1600px, 100vw"},"sources":[{"srcSet":"/static/45410a8b6421fd57ca8e6875b6546161/c9f06/image.webp 800w,\n/static/45410a8b6421fd57ca8e6875b6546161/f47df/image.webp 1600w","type":"image/webp","sizes":"(min-width: 1600px) 1600px, 100vw"}]},"width":1600,"height":650}}},{"id":"2d1c0b45-e40a-54d0-a806-73e359e8eb80","title":"How This Supplement Satisfied My Sweet Tooth","slug":"/how-this-supplement-satisfied-my-sweet-tooth/","link":null,"excerpt":"Nec ego a vidit Lorem  markdownum Ilion. Naides ferox vocantem, Iuno artes patrios tamen,\nspicea…","timeToRead":1,"featured":true,"thumbnailText":null,"date":"April 16, 2020","category":{"id":"e6164999-1c03-5290-8ada-6c09d59abfa8","name":"Umbra'kor","slug":"/category/umbrakor/","color":"#8da0cb","icon":"/static/20e8870720ef3d1e8449d9692e085f68/umbrakor.svg"},"author":null,"thumbnail":{"__typename":"ImageSharp","ImageSharp_vertical":{"layout":"constrained","backgroundColor":"#281818","images":{"fallback":{"src":"/static/7456b6885f850ce2a6b08b1ff912712c/144fe/image.jpg","srcSet":"/static/7456b6885f850ce2a6b08b1ff912712c/9d7b9/image.jpg 190w,\n/static/7456b6885f850ce2a6b08b1ff912712c/144fe/image.jpg 380w","sizes":"(min-width: 380px) 380px, 100vw"},"sources":[{"srcSet":"/static/7456b6885f850ce2a6b08b1ff912712c/228d6/image.webp 190w,\n/static/7456b6885f850ce2a6b08b1ff912712c/6b99c/image.webp 380w","type":"image/webp","sizes":"(min-width: 380px) 380px, 100vw"}]},"width":380,"height":290},"ImageSharp_hero":{"layout":"constrained","backgroundColor":"#281818","images":{"fallback":{"src":"/static/7456b6885f850ce2a6b08b1ff912712c/7a1ff/image.jpg","srcSet":"/static/7456b6885f850ce2a6b08b1ff912712c/a6b27/image.jpg 512w,\n/static/7456b6885f850ce2a6b08b1ff912712c/7a1ff/image.jpg 1024w","sizes":"(min-width: 1024px) 1024px, 100vw"},"sources":[{"srcSet":"/static/7456b6885f850ce2a6b08b1ff912712c/99476/image.webp 512w,\n/static/7456b6885f850ce2a6b08b1ff912712c/251f6/image.webp 1024w","type":"image/webp","sizes":"(min-width: 1024px) 1024px, 100vw"}]},"width":1600,"height":650}}},{"id":"be6e303d-debe-5ed1-bdc0-b914a915af80","title":"This Vegan Ranch Dip Is Nutritious","slug":"/this-vegan-ranch-dip-is-nutritious/","link":null,"excerpt":"Lorem markdownum illic venturi instructa nobis Echidnae,  cum  quid magna\nfatebor. Levat placetque…","timeToRead":1,"featured":null,"thumbnailText":null,"date":"April 16, 2020","category":{"id":"e6164999-1c03-5290-8ada-6c09d59abfa8","name":"Umbra'kor","slug":"/category/umbrakor/","color":"#8da0cb","icon":"/static/20e8870720ef3d1e8449d9692e085f68/umbrakor.svg"},"author":null,"thumbnail":{"__typename":"ImageSharp","ImageSharp_vertical":{"layout":"constrained","backgroundColor":"#281818","images":{"fallback":{"src":"/static/25fa3ddef9729a5cebe4e8c7c18225d5/144fe/image.jpg","srcSet":"/static/25fa3ddef9729a5cebe4e8c7c18225d5/9d7b9/image.jpg 190w,\n/static/25fa3ddef9729a5cebe4e8c7c18225d5/144fe/image.jpg 380w","sizes":"(min-width: 380px) 380px, 100vw"},"sources":[{"srcSet":"/static/25fa3ddef9729a5cebe4e8c7c18225d5/228d6/image.webp 190w,\n/static/25fa3ddef9729a5cebe4e8c7c18225d5/6b99c/image.webp 380w","type":"image/webp","sizes":"(min-width: 380px) 380px, 100vw"}]},"width":380,"height":290},"ImageSharp_hero":{"layout":"constrained","backgroundColor":"#281818","images":{"fallback":{"src":"/static/25fa3ddef9729a5cebe4e8c7c18225d5/7a1ff/image.jpg","srcSet":"/static/25fa3ddef9729a5cebe4e8c7c18225d5/a6b27/image.jpg 512w,\n/static/25fa3ddef9729a5cebe4e8c7c18225d5/7a1ff/image.jpg 1024w","sizes":"(min-width: 1024px) 1024px, 100vw"},"sources":[{"srcSet":"/static/25fa3ddef9729a5cebe4e8c7c18225d5/99476/image.webp 512w,\n/static/25fa3ddef9729a5cebe4e8c7c18225d5/251f6/image.webp 1024w","type":"image/webp","sizes":"(min-width: 1024px) 1024px, 100vw"}]},"width":1600,"height":650}}},{"id":"e8f67266-cab7-5c72-bf5e-0367cfb7c18a","title":"cocktails at john salt angel with lily mandy","slug":"/cocktails-at-john-salt-angel-with-lily-mandy/","link":null,"excerpt":"Primo in altis pelle alumnae Lorem markdownum obvius in seque opus, est bicorni forte; laeva…","timeToRead":1,"featured":null,"thumbnailText":null,"date":"April 16, 2020","category":{"id":"e6164999-1c03-5290-8ada-6c09d59abfa8","name":"Umbra'kor","slug":"/category/umbrakor/","color":"#8da0cb","icon":"/static/20e8870720ef3d1e8449d9692e085f68/umbrakor.svg"},"author":null,"thumbnail":{"__typename":"ImageSharp","ImageSharp_vertical":{"layout":"constrained","backgroundColor":"#382838","images":{"fallback":{"src":"/static/5552099b88ae9be30f8ed62b5ca2b672/144fe/image.jpg","srcSet":"/static/5552099b88ae9be30f8ed62b5ca2b672/9d7b9/image.jpg 190w,\n/static/5552099b88ae9be30f8ed62b5ca2b672/144fe/image.jpg 380w","sizes":"(min-width: 380px) 380px, 100vw"},"sources":[{"srcSet":"/static/5552099b88ae9be30f8ed62b5ca2b672/228d6/image.webp 190w,\n/static/5552099b88ae9be30f8ed62b5ca2b672/6b99c/image.webp 380w","type":"image/webp","sizes":"(min-width: 380px) 380px, 100vw"}]},"width":380,"height":290},"ImageSharp_hero":{"layout":"constrained","backgroundColor":"#382838","images":{"fallback":{"src":"/static/5552099b88ae9be30f8ed62b5ca2b672/7a1ff/image.jpg","srcSet":"/static/5552099b88ae9be30f8ed62b5ca2b672/a6b27/image.jpg 512w,\n/static/5552099b88ae9be30f8ed62b5ca2b672/7a1ff/image.jpg 1024w","sizes":"(min-width: 1024px) 1024px, 100vw"},"sources":[{"srcSet":"/static/5552099b88ae9be30f8ed62b5ca2b672/99476/image.webp 512w,\n/static/5552099b88ae9be30f8ed62b5ca2b672/251f6/image.webp 1024w","type":"image/webp","sizes":"(min-width: 1024px) 1024px, 100vw"}]},"width":1600,"height":650}}}],"pageInfo":{"pageCount":7,"hasPreviousPage":true,"hasNextPage":true,"currentPage":4},"totalCount":38}},"pageContext":{"slug":"/tag/business/","limit":6,"skip":18,"collectionType":"{tags: {slug: SELECT}","paginatePostsPage":false,"basePath":"/","services":{"algolia":false,"mailchimp":false,"disqus":false,"graphComment":false,"facebookComment":false},"siteUrl":null,"mobileMenu":{"title":"Regions","items":[{"name":"Contian","slug":"/category/contian/"},{"name":"Astalon","slug":"/category/astalon/"},{"name":"Frostgard","slug":"/category/frostgard/"},{"name":"Elenoria","slug":"/category/elenoria/"},{"name":"Grukmar","slug":"/category/grukmar/"},{"name":"Lumeshire","slug":"/category/lumeshire/"},{"name":"StoneHeld","slug":"/category/stoneheld/"},{"name":"Umbra'kor","slug":"/category/umbrakor/"},{"name":"Wyrmreach","slug":"/category/wyrmreach/"}]},"darkMode":true,"includeExcerpt":true,"includeTimeToRead":true,"includeTableOfContents":true,"imageQuality":75}},"staticQueryHashes":["1992822086","267426511","2818472511","2918496967","4235339838","4240507859","808336098"],"slicesMap":{}}