{"componentChunkName":"component---packages-blog-gatsby-blog-core-src-templates-collection-tag-js","path":"/tag/business/page/3/","result":{"data":{"collectionInfo":{"id":"6f077534-6d28-59eb-986d-893bd0aafcdb","name":"#business","slug":"/tag/business/"},"posts":{"nodes":[{"id":"799c2b0f-9210-59e7-91d6-13cd8d7aaa1f","title":"Capsule Wardrobe Essentials The Leopard Print Coat","slug":"/capsule-wardrobe-essentials-the-leopard-print-coat/","link":null,"excerpt":"Lorem markdownum quisque caeli, aura niger  molitur tangam  licebit, cum quo ut\nharenae pauper, eras…","timeToRead":1,"featured":null,"thumbnailText":null,"date":"April 16, 2020","category":{"id":"0df138b8-064d-50bb-aec7-ec504f8e6538","name":"Contian","slug":"/category/contian/","color":"#66c2a5","icon":"/static/a0bfcdd6eabd174cd1a0495c0bede38a/contian.svg"},"author":null,"thumbnail":{"__typename":"ImageSharp","ImageSharp_vertical":{"layout":"constrained","backgroundColor":"#181818","images":{"fallback":{"src":"/static/0ea1bc8c4bb68626402baba2d893239f/144fe/image.jpg","srcSet":"/static/0ea1bc8c4bb68626402baba2d893239f/9d7b9/image.jpg 190w,\n/static/0ea1bc8c4bb68626402baba2d893239f/144fe/image.jpg 380w","sizes":"(min-width: 380px) 380px, 100vw"},"sources":[{"srcSet":"/static/0ea1bc8c4bb68626402baba2d893239f/228d6/image.webp 190w,\n/static/0ea1bc8c4bb68626402baba2d893239f/6b99c/image.webp 380w","type":"image/webp","sizes":"(min-width: 380px) 380px, 100vw"}]},"width":380,"height":290},"ImageSharp_hero":{"layout":"constrained","backgroundColor":"#181818","images":{"fallback":{"src":"/static/0ea1bc8c4bb68626402baba2d893239f/7a1ff/image.jpg","srcSet":"/static/0ea1bc8c4bb68626402baba2d893239f/a6b27/image.jpg 512w,\n/static/0ea1bc8c4bb68626402baba2d893239f/7a1ff/image.jpg 1024w","sizes":"(min-width: 1024px) 1024px, 100vw"},"sources":[{"srcSet":"/static/0ea1bc8c4bb68626402baba2d893239f/99476/image.webp 512w,\n/static/0ea1bc8c4bb68626402baba2d893239f/251f6/image.webp 1024w","type":"image/webp","sizes":"(min-width: 1024px) 1024px, 100vw"}]},"width":1600,"height":650}}},{"id":"9f5c4d9f-cf8d-59cd-b94d-631a6f69a8b3","title":"How To Make a 10x10 Capsule Wardrobe","slug":"/how-to-make-a-10x10-capsule-wardrobe/","link":null,"excerpt":"Dona curvo sub evertere quam ultimus aridus Lorem markdownum , sub tecumque, posceret revertar…","timeToRead":1,"featured":null,"thumbnailText":null,"date":"April 16, 2020","category":{"id":"0df138b8-064d-50bb-aec7-ec504f8e6538","name":"Contian","slug":"/category/contian/","color":"#66c2a5","icon":"/static/a0bfcdd6eabd174cd1a0495c0bede38a/contian.svg"},"author":null,"thumbnail":{"__typename":"ImageSharp","ImageSharp_vertical":{"layout":"constrained","backgroundColor":"#180808","images":{"fallback":{"src":"/static/dfeac2131a229f80fb1c004384bf997d/144fe/image.jpg","srcSet":"/static/dfeac2131a229f80fb1c004384bf997d/9d7b9/image.jpg 190w,\n/static/dfeac2131a229f80fb1c004384bf997d/144fe/image.jpg 380w","sizes":"(min-width: 380px) 380px, 100vw"},"sources":[{"srcSet":"/static/dfeac2131a229f80fb1c004384bf997d/228d6/image.webp 190w,\n/static/dfeac2131a229f80fb1c004384bf997d/6b99c/image.webp 380w","type":"image/webp","sizes":"(min-width: 380px) 380px, 100vw"}]},"width":380,"height":290},"ImageSharp_hero":{"layout":"constrained","backgroundColor":"#180808","images":{"fallback":{"src":"/static/dfeac2131a229f80fb1c004384bf997d/7a1ff/image.jpg","srcSet":"/static/dfeac2131a229f80fb1c004384bf997d/a6b27/image.jpg 512w,\n/static/dfeac2131a229f80fb1c004384bf997d/7a1ff/image.jpg 1024w","sizes":"(min-width: 1024px) 1024px, 100vw"},"sources":[{"srcSet":"/static/dfeac2131a229f80fb1c004384bf997d/99476/image.webp 512w,\n/static/dfeac2131a229f80fb1c004384bf997d/251f6/image.webp 1024w","type":"image/webp","sizes":"(min-width: 1024px) 1024px, 100vw"}]},"width":1600,"height":650}}},{"id":"8cf5580d-a02a-5ee9-81b4-590ee4fa8035","title":"My Style Plan For 2019 & A Look Back At The Past Year","slug":"/my-style-plan-for-2019-and-a-look-back-at-the-past-year/","link":null,"excerpt":"Dona curvo sub evertere quam ultimus aridus Lorem markdownum , sub tecumque, posceret revertar…","timeToRead":1,"featured":null,"thumbnailText":null,"date":"April 16, 2020","category":{"id":"0df138b8-064d-50bb-aec7-ec504f8e6538","name":"Contian","slug":"/category/contian/","color":"#66c2a5","icon":"/static/a0bfcdd6eabd174cd1a0495c0bede38a/contian.svg"},"author":null,"thumbnail":{"__typename":"ImageSharp","ImageSharp_vertical":{"layout":"constrained","backgroundColor":"#080808","images":{"fallback":{"src":"/static/51b1ae2cfcc5381c79700ed6fedefd00/144fe/image.jpg","srcSet":"/static/51b1ae2cfcc5381c79700ed6fedefd00/9d7b9/image.jpg 190w,\n/static/51b1ae2cfcc5381c79700ed6fedefd00/144fe/image.jpg 380w","sizes":"(min-width: 380px) 380px, 100vw"},"sources":[{"srcSet":"/static/51b1ae2cfcc5381c79700ed6fedefd00/228d6/image.webp 190w,\n/static/51b1ae2cfcc5381c79700ed6fedefd00/6b99c/image.webp 380w","type":"image/webp","sizes":"(min-width: 380px) 380px, 100vw"}]},"width":380,"height":290},"ImageSharp_hero":{"layout":"constrained","backgroundColor":"#080808","images":{"fallback":{"src":"/static/51b1ae2cfcc5381c79700ed6fedefd00/a6b27/image.jpg","srcSet":"/static/51b1ae2cfcc5381c79700ed6fedefd00/aeedf/image.jpg 256w,\n/static/51b1ae2cfcc5381c79700ed6fedefd00/a6b27/image.jpg 512w","sizes":"(min-width: 512px) 512px, 100vw"},"sources":[{"srcSet":"/static/51b1ae2cfcc5381c79700ed6fedefd00/f83be/image.webp 256w,\n/static/51b1ae2cfcc5381c79700ed6fedefd00/99476/image.webp 512w","type":"image/webp","sizes":"(min-width: 512px) 512px, 100vw"}]},"width":1600,"height":650}}},{"id":"853db364-845b-50c4-ab86-8ce9d4478433","title":"My Winter Capsule Wardrobe Wish List","slug":"/my-winter-capsule-wardrobe-wish-list/","link":null,"excerpt":"Lorem markdownum obvius in seque opus, est bicorni forte; laeva.  Iurant \npatria beatam semel…","timeToRead":1,"featured":null,"thumbnailText":null,"date":"April 16, 2020","category":{"id":"0df138b8-064d-50bb-aec7-ec504f8e6538","name":"Contian","slug":"/category/contian/","color":"#66c2a5","icon":"/static/a0bfcdd6eabd174cd1a0495c0bede38a/contian.svg"},"author":null,"thumbnail":{"__typename":"ImageSharp","ImageSharp_vertical":{"layout":"constrained","backgroundColor":"#282828","images":{"fallback":{"src":"/static/6a3e7f15156a69d39390a1de08c8c930/144fe/image.jpg","srcSet":"/static/6a3e7f15156a69d39390a1de08c8c930/9d7b9/image.jpg 190w,\n/static/6a3e7f15156a69d39390a1de08c8c930/144fe/image.jpg 380w","sizes":"(min-width: 380px) 380px, 100vw"},"sources":[{"srcSet":"/static/6a3e7f15156a69d39390a1de08c8c930/228d6/image.webp 190w,\n/static/6a3e7f15156a69d39390a1de08c8c930/6b99c/image.webp 380w","type":"image/webp","sizes":"(min-width: 380px) 380px, 100vw"}]},"width":380,"height":290},"ImageSharp_hero":{"layout":"constrained","backgroundColor":"#282828","images":{"fallback":{"src":"/static/6a3e7f15156a69d39390a1de08c8c930/a6b27/image.jpg","srcSet":"/static/6a3e7f15156a69d39390a1de08c8c930/aeedf/image.jpg 256w,\n/static/6a3e7f15156a69d39390a1de08c8c930/a6b27/image.jpg 512w","sizes":"(min-width: 512px) 512px, 100vw"},"sources":[{"srcSet":"/static/6a3e7f15156a69d39390a1de08c8c930/f83be/image.webp 256w,\n/static/6a3e7f15156a69d39390a1de08c8c930/99476/image.webp 512w","type":"image/webp","sizes":"(min-width: 512px) 512px, 100vw"}]},"width":1600,"height":650}}},{"id":"f0249351-bac2-5b37-81df-cacfe077774e","title":"seven Summer Clothing Brands to Get Familiar With","slug":"/seven-summer-clothing-brands-to-get-familiar-with/","link":null,"excerpt":"Dona curvo sub evertere quam ultimus aridus Lorem markdownum , sub tecumque, posceret revertar…","timeToRead":1,"featured":null,"thumbnailText":null,"date":"April 16, 2020","category":{"id":"0df138b8-064d-50bb-aec7-ec504f8e6538","name":"Contian","slug":"/category/contian/","color":"#66c2a5","icon":"/static/a0bfcdd6eabd174cd1a0495c0bede38a/contian.svg"},"author":null,"thumbnail":{"__typename":"ImageSharp","ImageSharp_vertical":{"layout":"constrained","backgroundColor":"#080808","images":{"fallback":{"src":"/static/1dc583149cd430dfbd325b3be8853d60/144fe/image.jpg","srcSet":"/static/1dc583149cd430dfbd325b3be8853d60/9d7b9/image.jpg 190w,\n/static/1dc583149cd430dfbd325b3be8853d60/144fe/image.jpg 380w","sizes":"(min-width: 380px) 380px, 100vw"},"sources":[{"srcSet":"/static/1dc583149cd430dfbd325b3be8853d60/228d6/image.webp 190w,\n/static/1dc583149cd430dfbd325b3be8853d60/6b99c/image.webp 380w","type":"image/webp","sizes":"(min-width: 380px) 380px, 100vw"}]},"width":380,"height":290},"ImageSharp_hero":{"layout":"constrained","backgroundColor":"#080808","images":{"fallback":{"src":"/static/1dc583149cd430dfbd325b3be8853d60/a6b27/image.jpg","srcSet":"/static/1dc583149cd430dfbd325b3be8853d60/aeedf/image.jpg 256w,\n/static/1dc583149cd430dfbd325b3be8853d60/a6b27/image.jpg 512w","sizes":"(min-width: 512px) 512px, 100vw"},"sources":[{"srcSet":"/static/1dc583149cd430dfbd325b3be8853d60/f83be/image.webp 256w,\n/static/1dc583149cd430dfbd325b3be8853d60/99476/image.webp 512w","type":"image/webp","sizes":"(min-width: 512px) 512px, 100vw"}]},"width":1600,"height":650}}},{"id":"903beebb-8795-59d7-8778-893c9e50cd53","title":"The Five Best Places To Shop For Autumn Pieces","slug":"/the-five-best-places-to-shop-for-autumn-pieces/","link":null,"excerpt":"Nec ego a vidit Lorem  markdownum Ilion. Naides ferox vocantem, Iuno artes patrios tamen,\nspicea…","timeToRead":1,"featured":true,"thumbnailText":null,"date":"April 16, 2020","category":{"id":"0df138b8-064d-50bb-aec7-ec504f8e6538","name":"Contian","slug":"/category/contian/","color":"#66c2a5","icon":"/static/a0bfcdd6eabd174cd1a0495c0bede38a/contian.svg"},"author":null,"thumbnail":{"__typename":"ImageSharp","ImageSharp_vertical":{"layout":"constrained","backgroundColor":"#281818","images":{"fallback":{"src":"/static/9e1df71d27e33db51e83e7c855aae188/144fe/image.jpg","srcSet":"/static/9e1df71d27e33db51e83e7c855aae188/9d7b9/image.jpg 190w,\n/static/9e1df71d27e33db51e83e7c855aae188/144fe/image.jpg 380w","sizes":"(min-width: 380px) 380px, 100vw"},"sources":[{"srcSet":"/static/9e1df71d27e33db51e83e7c855aae188/228d6/image.webp 190w,\n/static/9e1df71d27e33db51e83e7c855aae188/6b99c/image.webp 380w","type":"image/webp","sizes":"(min-width: 380px) 380px, 100vw"}]},"width":380,"height":290},"ImageSharp_hero":{"layout":"constrained","backgroundColor":"#281818","images":{"fallback":{"src":"/static/9e1df71d27e33db51e83e7c855aae188/7a1ff/image.jpg","srcSet":"/static/9e1df71d27e33db51e83e7c855aae188/a6b27/image.jpg 512w,\n/static/9e1df71d27e33db51e83e7c855aae188/7a1ff/image.jpg 1024w","sizes":"(min-width: 1024px) 1024px, 100vw"},"sources":[{"srcSet":"/static/9e1df71d27e33db51e83e7c855aae188/99476/image.webp 512w,\n/static/9e1df71d27e33db51e83e7c855aae188/251f6/image.webp 1024w","type":"image/webp","sizes":"(min-width: 1024px) 1024px, 100vw"}]},"width":1600,"height":650}}}],"pageInfo":{"pageCount":7,"hasPreviousPage":true,"hasNextPage":true,"currentPage":3},"totalCount":38}},"pageContext":{"slug":"/tag/business/","limit":6,"skip":12,"collectionType":"{tags: {slug: SELECT}","paginatePostsPage":false,"basePath":"/","services":{"algolia":false,"mailchimp":false,"disqus":false,"graphComment":false,"facebookComment":false},"siteUrl":null,"mobileMenu":{"title":"Regions","items":[{"name":"Astalon","slug":"/category/astalon/"},{"name":"Contian","slug":"/category/contian/"},{"name":"Elenoria","slug":"/category/elenoria/"},{"name":"Frostgard","slug":"/category/frostgard/"},{"name":"Grukmar","slug":"/category/grukmar/"},{"name":"Lumeshire","slug":"/category/lumeshire/"},{"name":"StoneHeld","slug":"/category/stoneheld/"},{"name":"Wyrmreach","slug":"/category/wyrmreach/"},{"name":"Umbra'kor","slug":"/category/umbrakor/"}]},"darkMode":true,"includeExcerpt":true,"includeTimeToRead":true,"includeTableOfContents":true,"imageQuality":75}},"staticQueryHashes":["1992822086","267426511","2818472511","2918496967","4235339838","4240507859","808336098"],"slicesMap":{}}