{"componentChunkName":"component---packages-blog-gatsby-blog-core-src-templates-collection-tag-js","path":"/tag/business/page/2/","result":{"data":{"collectionInfo":{"id":"6f077534-6d28-59eb-986d-893bd0aafcdb","name":"#business","slug":"/tag/business/"},"posts":{"nodes":[{"id":"6612bd7d-a76e-5a40-8257-0cf3e2920ef9","title":"The Best Beauty Products That I’ve Discovered In 2019","slug":"/the-best-beauty-products-that-ive-discovered-in-2019/","link":null,"excerpt":"Lorem markdownum transitque nondum, Peliaeque at poterat exegit, urbis quo;\ntibi. Cursus mecum adit…","timeToRead":1,"featured":null,"thumbnailText":null,"date":"April 16, 2020","category":{"id":"5c9d0584-30c6-5861-871f-f4770cd65916","name":"Astalon","slug":"/category/astalon/","color":"#964B00","icon":"/static/44173a593af733c988ba51ffb67eeafe/astalon.svg"},"author":null,"thumbnail":{"__typename":"ImageSharp","ImageSharp_vertical":{"layout":"constrained","backgroundColor":"#080808","images":{"fallback":{"src":"/static/6ab6b76bd8c1ee81842f72641ebcd3ee/144fe/image.jpg","srcSet":"/static/6ab6b76bd8c1ee81842f72641ebcd3ee/9d7b9/image.jpg 190w,\n/static/6ab6b76bd8c1ee81842f72641ebcd3ee/144fe/image.jpg 380w","sizes":"(min-width: 380px) 380px, 100vw"},"sources":[{"srcSet":"/static/6ab6b76bd8c1ee81842f72641ebcd3ee/228d6/image.webp 190w,\n/static/6ab6b76bd8c1ee81842f72641ebcd3ee/6b99c/image.webp 380w","type":"image/webp","sizes":"(min-width: 380px) 380px, 100vw"}]},"width":380,"height":290},"ImageSharp_hero":{"layout":"constrained","backgroundColor":"#080808","images":{"fallback":{"src":"/static/6ab6b76bd8c1ee81842f72641ebcd3ee/7a1ff/image.jpg","srcSet":"/static/6ab6b76bd8c1ee81842f72641ebcd3ee/a6b27/image.jpg 512w,\n/static/6ab6b76bd8c1ee81842f72641ebcd3ee/7a1ff/image.jpg 1024w","sizes":"(min-width: 1024px) 1024px, 100vw"},"sources":[{"srcSet":"/static/6ab6b76bd8c1ee81842f72641ebcd3ee/99476/image.webp 512w,\n/static/6ab6b76bd8c1ee81842f72641ebcd3ee/251f6/image.webp 1024w","type":"image/webp","sizes":"(min-width: 1024px) 1024px, 100vw"}]},"width":1600,"height":650}}},{"id":"7dc05988-8be0-5bb6-8515-89d3f6904de2","title":"This Tik Tok Makeup Trend Apparently Yields a Flawless Finish","slug":"/this-tik-tok-makeup-trend-apparently-yields-a-flawless-finish/","link":null,"excerpt":"Lorem markdownum suarum successibus Auram illud. Aqua exegit silvae exiguam\ntempli, cui linquit…","timeToRead":1,"featured":null,"thumbnailText":null,"date":"April 16, 2020","category":{"id":"5c9d0584-30c6-5861-871f-f4770cd65916","name":"Astalon","slug":"/category/astalon/","color":"#964B00","icon":"/static/44173a593af733c988ba51ffb67eeafe/astalon.svg"},"author":null,"thumbnail":{"__typename":"ImageSharp","ImageSharp_vertical":{"layout":"constrained","backgroundColor":"#384858","images":{"fallback":{"src":"/static/71519b36d31e153f202030a692a99815/144fe/image.jpg","srcSet":"/static/71519b36d31e153f202030a692a99815/9d7b9/image.jpg 190w,\n/static/71519b36d31e153f202030a692a99815/144fe/image.jpg 380w","sizes":"(min-width: 380px) 380px, 100vw"},"sources":[{"srcSet":"/static/71519b36d31e153f202030a692a99815/228d6/image.webp 190w,\n/static/71519b36d31e153f202030a692a99815/6b99c/image.webp 380w","type":"image/webp","sizes":"(min-width: 380px) 380px, 100vw"}]},"width":380,"height":290},"ImageSharp_hero":{"layout":"constrained","backgroundColor":"#384858","images":{"fallback":{"src":"/static/71519b36d31e153f202030a692a99815/fcdd8/image.jpg","srcSet":"/static/71519b36d31e153f202030a692a99815/26e55/image.jpg 768w,\n/static/71519b36d31e153f202030a692a99815/fcdd8/image.jpg 1536w","sizes":"(min-width: 1536px) 1536px, 100vw"},"sources":[{"srcSet":"/static/71519b36d31e153f202030a692a99815/8424c/image.webp 768w,\n/static/71519b36d31e153f202030a692a99815/7710d/image.webp 1536w","type":"image/webp","sizes":"(min-width: 1536px) 1536px, 100vw"}]},"width":1600,"height":650}}},{"id":"42076b70-66dc-5ebc-85eb-59c058df9e2d","title":"Four Face Masks That I Use ALL The Time & Why I Love Them","slug":"/four-face-masks-that-i-use-all-the-time-and-why-i-love-them/","link":null,"excerpt":"Dona curvo sub evertere quam ultimus aridus Lorem markdownum , sub tecumque, posceret revertar…","timeToRead":1,"featured":null,"thumbnailText":null,"date":"April 16, 2020","category":{"id":"5c9d0584-30c6-5861-871f-f4770cd65916","name":"Astalon","slug":"/category/astalon/","color":"#964B00","icon":"/static/44173a593af733c988ba51ffb67eeafe/astalon.svg"},"author":null,"thumbnail":{"__typename":"ImageSharp","ImageSharp_vertical":{"layout":"constrained","backgroundColor":"#080808","images":{"fallback":{"src":"/static/c3d5f73d60feef71b24bae13aa0dbb98/144fe/image.jpg","srcSet":"/static/c3d5f73d60feef71b24bae13aa0dbb98/9d7b9/image.jpg 190w,\n/static/c3d5f73d60feef71b24bae13aa0dbb98/144fe/image.jpg 380w","sizes":"(min-width: 380px) 380px, 100vw"},"sources":[{"srcSet":"/static/c3d5f73d60feef71b24bae13aa0dbb98/228d6/image.webp 190w,\n/static/c3d5f73d60feef71b24bae13aa0dbb98/6b99c/image.webp 380w","type":"image/webp","sizes":"(min-width: 380px) 380px, 100vw"}]},"width":380,"height":290},"ImageSharp_hero":{"layout":"constrained","backgroundColor":"#080808","images":{"fallback":{"src":"/static/c3d5f73d60feef71b24bae13aa0dbb98/a6b27/image.jpg","srcSet":"/static/c3d5f73d60feef71b24bae13aa0dbb98/aeedf/image.jpg 256w,\n/static/c3d5f73d60feef71b24bae13aa0dbb98/a6b27/image.jpg 512w","sizes":"(min-width: 512px) 512px, 100vw"},"sources":[{"srcSet":"/static/c3d5f73d60feef71b24bae13aa0dbb98/f83be/image.webp 256w,\n/static/c3d5f73d60feef71b24bae13aa0dbb98/99476/image.webp 512w","type":"image/webp","sizes":"(min-width: 512px) 512px, 100vw"}]},"width":1600,"height":650}}},{"id":"8819dc56-1c10-5af1-88ae-6d102dfacbcb","title":"The Glowy Skin Recipe Life Skincare & Makeup","slug":"/the-glowy-skin-recipe-life-skincare-and-makeup/","link":null,"excerpt":"Lorem markdownum illic venturi instructa nobis Echidnae,  cum  quid magna\nfatebor. Levat placetque…","timeToRead":1,"featured":null,"thumbnailText":null,"date":"April 16, 2020","category":{"id":"5c9d0584-30c6-5861-871f-f4770cd65916","name":"Astalon","slug":"/category/astalon/","color":"#964B00","icon":"/static/44173a593af733c988ba51ffb67eeafe/astalon.svg"},"author":null,"thumbnail":{"__typename":"ImageSharp","ImageSharp_vertical":{"layout":"constrained","backgroundColor":"#080808","images":{"fallback":{"src":"/static/44f19c829ff4f5b71b46a3bfb77fddff/144fe/image.jpg","srcSet":"/static/44f19c829ff4f5b71b46a3bfb77fddff/9d7b9/image.jpg 190w,\n/static/44f19c829ff4f5b71b46a3bfb77fddff/144fe/image.jpg 380w","sizes":"(min-width: 380px) 380px, 100vw"},"sources":[{"srcSet":"/static/44f19c829ff4f5b71b46a3bfb77fddff/228d6/image.webp 190w,\n/static/44f19c829ff4f5b71b46a3bfb77fddff/6b99c/image.webp 380w","type":"image/webp","sizes":"(min-width: 380px) 380px, 100vw"}]},"width":380,"height":290},"ImageSharp_hero":{"layout":"constrained","backgroundColor":"#080808","images":{"fallback":{"src":"/static/44f19c829ff4f5b71b46a3bfb77fddff/7a1ff/image.jpg","srcSet":"/static/44f19c829ff4f5b71b46a3bfb77fddff/a6b27/image.jpg 512w,\n/static/44f19c829ff4f5b71b46a3bfb77fddff/7a1ff/image.jpg 1024w","sizes":"(min-width: 1024px) 1024px, 100vw"},"sources":[{"srcSet":"/static/44f19c829ff4f5b71b46a3bfb77fddff/99476/image.webp 512w,\n/static/44f19c829ff4f5b71b46a3bfb77fddff/251f6/image.webp 1024w","type":"image/webp","sizes":"(min-width: 1024px) 1024px, 100vw"}]},"width":1600,"height":650}}},{"id":"b5736c0b-9ccc-59a9-9158-550df869d0b8","title":"Why I’m Experimenting With Colourful Makeup & Where To Find Inspiration","slug":"/why-im-experimenting-with-colourful-makeup-and-where-to-find-inspiration/","link":null,"excerpt":"Dona curvo sub evertere quam ultimus aridus Lorem markdownum , sub tecumque, posceret revertar…","timeToRead":1,"featured":null,"thumbnailText":null,"date":"April 16, 2020","category":{"id":"5c9d0584-30c6-5861-871f-f4770cd65916","name":"Astalon","slug":"/category/astalon/","color":"#964B00","icon":"/static/44173a593af733c988ba51ffb67eeafe/astalon.svg"},"author":null,"thumbnail":{"__typename":"ImageSharp","ImageSharp_vertical":{"layout":"constrained","backgroundColor":"#080808","images":{"fallback":{"src":"/static/85480ed7c001aa8430efe98bea39ebd0/144fe/image.jpg","srcSet":"/static/85480ed7c001aa8430efe98bea39ebd0/9d7b9/image.jpg 190w,\n/static/85480ed7c001aa8430efe98bea39ebd0/144fe/image.jpg 380w","sizes":"(min-width: 380px) 380px, 100vw"},"sources":[{"srcSet":"/static/85480ed7c001aa8430efe98bea39ebd0/228d6/image.webp 190w,\n/static/85480ed7c001aa8430efe98bea39ebd0/6b99c/image.webp 380w","type":"image/webp","sizes":"(min-width: 380px) 380px, 100vw"}]},"width":380,"height":290},"ImageSharp_hero":{"layout":"constrained","backgroundColor":"#080808","images":{"fallback":{"src":"/static/85480ed7c001aa8430efe98bea39ebd0/a6b27/image.jpg","srcSet":"/static/85480ed7c001aa8430efe98bea39ebd0/aeedf/image.jpg 256w,\n/static/85480ed7c001aa8430efe98bea39ebd0/a6b27/image.jpg 512w","sizes":"(min-width: 512px) 512px, 100vw"},"sources":[{"srcSet":"/static/85480ed7c001aa8430efe98bea39ebd0/f83be/image.webp 256w,\n/static/85480ed7c001aa8430efe98bea39ebd0/99476/image.webp 512w","type":"image/webp","sizes":"(min-width: 512px) 512px, 100vw"}]},"width":1600,"height":650}}},{"id":"1d8191d3-9b5f-531b-8247-5b54f521a776","title":"A Guide To Buying Denim & My Favourite Styles","slug":"/a-guide-to-buying-denim-and-my-favourite-styles/","link":null,"excerpt":"Dona curvo sub evertere quam ultimus aridus Lorem markdownum , sub tecumque, posceret revertar…","timeToRead":1,"featured":null,"thumbnailText":null,"date":"April 16, 2020","category":{"id":"0df138b8-064d-50bb-aec7-ec504f8e6538","name":"Contian","slug":"/category/contian/","color":"#66c2a5","icon":"/static/a0bfcdd6eabd174cd1a0495c0bede38a/contian.svg"},"author":null,"thumbnail":{"__typename":"ImageSharp","ImageSharp_vertical":{"layout":"constrained","backgroundColor":"#180808","images":{"fallback":{"src":"/static/008c5d4ed4baea1c865c96ecb7c1e457/144fe/image.jpg","srcSet":"/static/008c5d4ed4baea1c865c96ecb7c1e457/9d7b9/image.jpg 190w,\n/static/008c5d4ed4baea1c865c96ecb7c1e457/144fe/image.jpg 380w","sizes":"(min-width: 380px) 380px, 100vw"},"sources":[{"srcSet":"/static/008c5d4ed4baea1c865c96ecb7c1e457/228d6/image.webp 190w,\n/static/008c5d4ed4baea1c865c96ecb7c1e457/6b99c/image.webp 380w","type":"image/webp","sizes":"(min-width: 380px) 380px, 100vw"}]},"width":380,"height":290},"ImageSharp_hero":{"layout":"constrained","backgroundColor":"#180808","images":{"fallback":{"src":"/static/008c5d4ed4baea1c865c96ecb7c1e457/7a1ff/image.jpg","srcSet":"/static/008c5d4ed4baea1c865c96ecb7c1e457/a6b27/image.jpg 512w,\n/static/008c5d4ed4baea1c865c96ecb7c1e457/7a1ff/image.jpg 1024w","sizes":"(min-width: 1024px) 1024px, 100vw"},"sources":[{"srcSet":"/static/008c5d4ed4baea1c865c96ecb7c1e457/99476/image.webp 512w,\n/static/008c5d4ed4baea1c865c96ecb7c1e457/251f6/image.webp 1024w","type":"image/webp","sizes":"(min-width: 1024px) 1024px, 100vw"}]},"width":1600,"height":650}}}],"pageInfo":{"pageCount":7,"hasPreviousPage":true,"hasNextPage":true,"currentPage":2},"totalCount":38}},"pageContext":{"slug":"/tag/business/","limit":6,"skip":6,"collectionType":"{tags: {slug: SELECT}","paginatePostsPage":false,"basePath":"/","services":{"algolia":false,"mailchimp":false,"disqus":false,"graphComment":false,"facebookComment":false},"siteUrl":null,"mobileMenu":{"title":"Regions","items":[{"name":"Astalon","slug":"/category/astalon/"},{"name":"Contian","slug":"/category/contian/"},{"name":"Elenoria","slug":"/category/elenoria/"},{"name":"Frostgard","slug":"/category/frostgard/"},{"name":"Grukmar","slug":"/category/grukmar/"},{"name":"Lumeshire","slug":"/category/lumeshire/"},{"name":"StoneHeld","slug":"/category/stoneheld/"},{"name":"Wyrmreach","slug":"/category/wyrmreach/"},{"name":"Umbra'kor","slug":"/category/umbrakor/"}]},"darkMode":true,"includeExcerpt":true,"includeTimeToRead":true,"includeTableOfContents":true,"imageQuality":75}},"staticQueryHashes":["1992822086","267426511","2818472511","2918496967","4235339838","4240507859","808336098"],"slicesMap":{}}