{"componentChunkName":"component---packages-blog-gatsby-blog-core-src-templates-collection-tag-js","path":"/tag/agency/page/3/","result":{"data":{"collectionInfo":{"id":"d0e1d257-7c87-564c-a00b-9773e4ab0762","name":"#agency","slug":"/tag/agency/"},"posts":{"nodes":[{"id":"f0249351-bac2-5b37-81df-cacfe077774e","title":"seven Summer Clothing Brands to Get Familiar With","slug":"/seven-summer-clothing-brands-to-get-familiar-with/","link":null,"excerpt":"Dona curvo sub evertere quam ultimus aridus Lorem markdownum , sub tecumque, posceret revertar…","timeToRead":1,"featured":null,"thumbnailText":null,"date":"April 16, 2020","category":{"id":"0df138b8-064d-50bb-aec7-ec504f8e6538","name":"Contian","slug":"/category/contian/","color":"#66c2a5","icon":"/static/a0bfcdd6eabd174cd1a0495c0bede38a/contian.svg"},"author":null,"thumbnail":{"__typename":"ImageSharp","ImageSharp_vertical":{"layout":"constrained","backgroundColor":"#080808","images":{"fallback":{"src":"/static/1dc583149cd430dfbd325b3be8853d60/144fe/image.jpg","srcSet":"/static/1dc583149cd430dfbd325b3be8853d60/9d7b9/image.jpg 190w,\n/static/1dc583149cd430dfbd325b3be8853d60/144fe/image.jpg 380w","sizes":"(min-width: 380px) 380px, 100vw"},"sources":[{"srcSet":"/static/1dc583149cd430dfbd325b3be8853d60/228d6/image.webp 190w,\n/static/1dc583149cd430dfbd325b3be8853d60/6b99c/image.webp 380w","type":"image/webp","sizes":"(min-width: 380px) 380px, 100vw"}]},"width":380,"height":290},"ImageSharp_hero":{"layout":"constrained","backgroundColor":"#080808","images":{"fallback":{"src":"/static/1dc583149cd430dfbd325b3be8853d60/a6b27/image.jpg","srcSet":"/static/1dc583149cd430dfbd325b3be8853d60/aeedf/image.jpg 256w,\n/static/1dc583149cd430dfbd325b3be8853d60/a6b27/image.jpg 512w","sizes":"(min-width: 512px) 512px, 100vw"},"sources":[{"srcSet":"/static/1dc583149cd430dfbd325b3be8853d60/f83be/image.webp 256w,\n/static/1dc583149cd430dfbd325b3be8853d60/99476/image.webp 512w","type":"image/webp","sizes":"(min-width: 512px) 512px, 100vw"}]},"width":1600,"height":650}}},{"id":"fd754a6c-3c4c-5bba-884a-a93b3560c823","title":"The Satin Skirt & How To Wear It All Year Round","slug":"/the-satin-skirt-and-how-to-wear-it-all-year-round/","link":null,"excerpt":"Lorem markdownum transitque nondum, Peliaeque at poterat exegit, urbis quo;\ntibi. Cursus mecum adit…","timeToRead":1,"featured":null,"thumbnailText":null,"date":"April 16, 2020","category":{"id":"0df138b8-064d-50bb-aec7-ec504f8e6538","name":"Contian","slug":"/category/contian/","color":"#66c2a5","icon":"/static/a0bfcdd6eabd174cd1a0495c0bede38a/contian.svg"},"author":null,"thumbnail":{"__typename":"ImageSharp","ImageSharp_vertical":{"layout":"constrained","backgroundColor":"#080808","images":{"fallback":{"src":"/static/064319c593ae600d7120f2c25548775e/144fe/image.jpg","srcSet":"/static/064319c593ae600d7120f2c25548775e/9d7b9/image.jpg 190w,\n/static/064319c593ae600d7120f2c25548775e/144fe/image.jpg 380w","sizes":"(min-width: 380px) 380px, 100vw"},"sources":[{"srcSet":"/static/064319c593ae600d7120f2c25548775e/228d6/image.webp 190w,\n/static/064319c593ae600d7120f2c25548775e/6b99c/image.webp 380w","type":"image/webp","sizes":"(min-width: 380px) 380px, 100vw"}]},"width":380,"height":290},"ImageSharp_hero":{"layout":"constrained","backgroundColor":"#080808","images":{"fallback":{"src":"/static/064319c593ae600d7120f2c25548775e/a6b27/image.jpg","srcSet":"/static/064319c593ae600d7120f2c25548775e/aeedf/image.jpg 256w,\n/static/064319c593ae600d7120f2c25548775e/a6b27/image.jpg 512w","sizes":"(min-width: 512px) 512px, 100vw"},"sources":[{"srcSet":"/static/064319c593ae600d7120f2c25548775e/f83be/image.webp 256w,\n/static/064319c593ae600d7120f2c25548775e/99476/image.webp 512w","type":"image/webp","sizes":"(min-width: 512px) 512px, 100vw"}]},"width":1600,"height":650}}},{"id":"8cf5580d-a02a-5ee9-81b4-590ee4fa8035","title":"My Style Plan For 2019 & A Look Back At The Past Year","slug":"/my-style-plan-for-2019-and-a-look-back-at-the-past-year/","link":null,"excerpt":"Dona curvo sub evertere quam ultimus aridus Lorem markdownum , sub tecumque, posceret revertar…","timeToRead":1,"featured":null,"thumbnailText":null,"date":"April 16, 2020","category":{"id":"0df138b8-064d-50bb-aec7-ec504f8e6538","name":"Contian","slug":"/category/contian/","color":"#66c2a5","icon":"/static/a0bfcdd6eabd174cd1a0495c0bede38a/contian.svg"},"author":null,"thumbnail":{"__typename":"ImageSharp","ImageSharp_vertical":{"layout":"constrained","backgroundColor":"#080808","images":{"fallback":{"src":"/static/51b1ae2cfcc5381c79700ed6fedefd00/144fe/image.jpg","srcSet":"/static/51b1ae2cfcc5381c79700ed6fedefd00/9d7b9/image.jpg 190w,\n/static/51b1ae2cfcc5381c79700ed6fedefd00/144fe/image.jpg 380w","sizes":"(min-width: 380px) 380px, 100vw"},"sources":[{"srcSet":"/static/51b1ae2cfcc5381c79700ed6fedefd00/228d6/image.webp 190w,\n/static/51b1ae2cfcc5381c79700ed6fedefd00/6b99c/image.webp 380w","type":"image/webp","sizes":"(min-width: 380px) 380px, 100vw"}]},"width":380,"height":290},"ImageSharp_hero":{"layout":"constrained","backgroundColor":"#080808","images":{"fallback":{"src":"/static/51b1ae2cfcc5381c79700ed6fedefd00/a6b27/image.jpg","srcSet":"/static/51b1ae2cfcc5381c79700ed6fedefd00/aeedf/image.jpg 256w,\n/static/51b1ae2cfcc5381c79700ed6fedefd00/a6b27/image.jpg 512w","sizes":"(min-width: 512px) 512px, 100vw"},"sources":[{"srcSet":"/static/51b1ae2cfcc5381c79700ed6fedefd00/f83be/image.webp 256w,\n/static/51b1ae2cfcc5381c79700ed6fedefd00/99476/image.webp 512w","type":"image/webp","sizes":"(min-width: 512px) 512px, 100vw"}]},"width":1600,"height":650}}},{"id":"903beebb-8795-59d7-8778-893c9e50cd53","title":"The Five Best Places To Shop For Autumn Pieces","slug":"/the-five-best-places-to-shop-for-autumn-pieces/","link":null,"excerpt":"Nec ego a vidit Lorem  markdownum Ilion. Naides ferox vocantem, Iuno artes patrios tamen,\nspicea…","timeToRead":1,"featured":true,"thumbnailText":null,"date":"April 16, 2020","category":{"id":"0df138b8-064d-50bb-aec7-ec504f8e6538","name":"Contian","slug":"/category/contian/","color":"#66c2a5","icon":"/static/a0bfcdd6eabd174cd1a0495c0bede38a/contian.svg"},"author":null,"thumbnail":{"__typename":"ImageSharp","ImageSharp_vertical":{"layout":"constrained","backgroundColor":"#281818","images":{"fallback":{"src":"/static/9e1df71d27e33db51e83e7c855aae188/144fe/image.jpg","srcSet":"/static/9e1df71d27e33db51e83e7c855aae188/9d7b9/image.jpg 190w,\n/static/9e1df71d27e33db51e83e7c855aae188/144fe/image.jpg 380w","sizes":"(min-width: 380px) 380px, 100vw"},"sources":[{"srcSet":"/static/9e1df71d27e33db51e83e7c855aae188/228d6/image.webp 190w,\n/static/9e1df71d27e33db51e83e7c855aae188/6b99c/image.webp 380w","type":"image/webp","sizes":"(min-width: 380px) 380px, 100vw"}]},"width":380,"height":290},"ImageSharp_hero":{"layout":"constrained","backgroundColor":"#281818","images":{"fallback":{"src":"/static/9e1df71d27e33db51e83e7c855aae188/7a1ff/image.jpg","srcSet":"/static/9e1df71d27e33db51e83e7c855aae188/a6b27/image.jpg 512w,\n/static/9e1df71d27e33db51e83e7c855aae188/7a1ff/image.jpg 1024w","sizes":"(min-width: 1024px) 1024px, 100vw"},"sources":[{"srcSet":"/static/9e1df71d27e33db51e83e7c855aae188/99476/image.webp 512w,\n/static/9e1df71d27e33db51e83e7c855aae188/251f6/image.webp 1024w","type":"image/webp","sizes":"(min-width: 1024px) 1024px, 100vw"}]},"width":1600,"height":650}}},{"id":"adad2df0-a84c-5d21-8260-dc74936479ab","title":"Three New Outfit Formulas To Add To Your Capsule Wardrobe","slug":"/three-new-outfit-formulas-to-add-to-your-capsule-wardrobe/","link":null,"excerpt":"Me clausere Erigonen ego Lorem markdownum sustineant oscula caespite ad gratia motus silvis…","timeToRead":1,"featured":true,"thumbnailText":null,"date":"April 16, 2020","category":{"id":"0df138b8-064d-50bb-aec7-ec504f8e6538","name":"Contian","slug":"/category/contian/","color":"#66c2a5","icon":"/static/a0bfcdd6eabd174cd1a0495c0bede38a/contian.svg"},"author":null,"thumbnail":{"__typename":"ImageSharp","ImageSharp_vertical":{"layout":"constrained","backgroundColor":"#180808","images":{"fallback":{"src":"/static/3e0f706c9ec2251a8c6d943750e38db4/144fe/image.jpg","srcSet":"/static/3e0f706c9ec2251a8c6d943750e38db4/9d7b9/image.jpg 190w,\n/static/3e0f706c9ec2251a8c6d943750e38db4/144fe/image.jpg 380w","sizes":"(min-width: 380px) 380px, 100vw"},"sources":[{"srcSet":"/static/3e0f706c9ec2251a8c6d943750e38db4/228d6/image.webp 190w,\n/static/3e0f706c9ec2251a8c6d943750e38db4/6b99c/image.webp 380w","type":"image/webp","sizes":"(min-width: 380px) 380px, 100vw"}]},"width":380,"height":290},"ImageSharp_hero":{"layout":"constrained","backgroundColor":"#180808","images":{"fallback":{"src":"/static/3e0f706c9ec2251a8c6d943750e38db4/7a1ff/image.jpg","srcSet":"/static/3e0f706c9ec2251a8c6d943750e38db4/a6b27/image.jpg 512w,\n/static/3e0f706c9ec2251a8c6d943750e38db4/7a1ff/image.jpg 1024w","sizes":"(min-width: 1024px) 1024px, 100vw"},"sources":[{"srcSet":"/static/3e0f706c9ec2251a8c6d943750e38db4/99476/image.webp 512w,\n/static/3e0f706c9ec2251a8c6d943750e38db4/251f6/image.webp 1024w","type":"image/webp","sizes":"(min-width: 1024px) 1024px, 100vw"}]},"width":1600,"height":650}}},{"id":"ae3b9577-2e77-55d5-bc94-30fde44bd826","title":"What I’ll Be Wearing This Party Season & The Festive Edit","slug":"/what-ill-be-wearing-this-party-season-and-the-festive-edit/","link":null,"excerpt":"Lorem markdownum illic venturi instructa nobis Echidnae,  cum  quid magna\nfatebor. Levat placetque…","timeToRead":1,"featured":true,"thumbnailText":null,"date":"April 16, 2020","category":{"id":"0df138b8-064d-50bb-aec7-ec504f8e6538","name":"Contian","slug":"/category/contian/","color":"#66c2a5","icon":"/static/a0bfcdd6eabd174cd1a0495c0bede38a/contian.svg"},"author":null,"thumbnail":{"__typename":"ImageSharp","ImageSharp_vertical":{"layout":"constrained","backgroundColor":"#181818","images":{"fallback":{"src":"/static/deeccaeabbd1e046ca99fb21fb8c7d70/144fe/image.jpg","srcSet":"/static/deeccaeabbd1e046ca99fb21fb8c7d70/9d7b9/image.jpg 190w,\n/static/deeccaeabbd1e046ca99fb21fb8c7d70/144fe/image.jpg 380w","sizes":"(min-width: 380px) 380px, 100vw"},"sources":[{"srcSet":"/static/deeccaeabbd1e046ca99fb21fb8c7d70/228d6/image.webp 190w,\n/static/deeccaeabbd1e046ca99fb21fb8c7d70/6b99c/image.webp 380w","type":"image/webp","sizes":"(min-width: 380px) 380px, 100vw"}]},"width":380,"height":290},"ImageSharp_hero":{"layout":"constrained","backgroundColor":"#181818","images":{"fallback":{"src":"/static/deeccaeabbd1e046ca99fb21fb8c7d70/7a1ff/image.jpg","srcSet":"/static/deeccaeabbd1e046ca99fb21fb8c7d70/a6b27/image.jpg 512w,\n/static/deeccaeabbd1e046ca99fb21fb8c7d70/7a1ff/image.jpg 1024w","sizes":"(min-width: 1024px) 1024px, 100vw"},"sources":[{"srcSet":"/static/deeccaeabbd1e046ca99fb21fb8c7d70/99476/image.webp 512w,\n/static/deeccaeabbd1e046ca99fb21fb8c7d70/251f6/image.webp 1024w","type":"image/webp","sizes":"(min-width: 1024px) 1024px, 100vw"}]},"width":1600,"height":650}}}],"pageInfo":{"pageCount":5,"hasPreviousPage":true,"hasNextPage":true,"currentPage":3},"totalCount":29}},"pageContext":{"slug":"/tag/agency/","limit":6,"skip":12,"collectionType":"{tags: {slug: SELECT}","paginatePostsPage":false,"basePath":"/","services":{"algolia":false,"mailchimp":false,"disqus":false,"graphComment":false,"facebookComment":false},"siteUrl":null,"mobileMenu":{"title":"Regions","items":[{"name":"Contian","slug":"/category/contian/"},{"name":"Astalon","slug":"/category/astalon/"},{"name":"Frostgard","slug":"/category/frostgard/"},{"name":"Elenoria","slug":"/category/elenoria/"},{"name":"Grukmar","slug":"/category/grukmar/"},{"name":"Lumeshire","slug":"/category/lumeshire/"},{"name":"StoneHeld","slug":"/category/stoneheld/"},{"name":"Umbra'kor","slug":"/category/umbrakor/"},{"name":"Wyrmreach","slug":"/category/wyrmreach/"}]},"darkMode":true,"includeExcerpt":true,"includeTimeToRead":true,"includeTableOfContents":true,"imageQuality":75}},"staticQueryHashes":["1992822086","267426511","2818472511","2918496967","4235339838","4240507859","808336098"],"slicesMap":{}}