{"componentChunkName":"component---packages-blog-gatsby-blog-core-src-templates-collection-tag-js","path":"/tag/business/page/5/","result":{"data":{"collectionInfo":{"id":"6f077534-6d28-59eb-986d-893bd0aafcdb","name":"#business","slug":"/tag/business/"},"posts":{"nodes":[{"id":"498cd204-4735-5a4f-8578-95ec741893e9","title":"The 5 Nonnegotiables Of A Healthy Quarantine Doctor Approved","slug":"/the-5-nonnegotiables-of-a-healthy-quarantine-doctor-approved/","link":null,"excerpt":"Dona curvo sub evertere quam ultimus aridus Lorem markdownum , sub tecumque, posceret revertar…","timeToRead":1,"featured":null,"thumbnailText":null,"date":"April 16, 2020","category":{"id":"e6164999-1c03-5290-8ada-6c09d59abfa8","name":"Umbra'kor","slug":"/category/umbrakor/","color":"#8da0cb","icon":"/static/20e8870720ef3d1e8449d9692e085f68/umbrakor.svg"},"author":null,"thumbnail":{"__typename":"ImageSharp","ImageSharp_vertical":{"layout":"constrained","backgroundColor":"#281818","images":{"fallback":{"src":"/static/be7732f1133bf3ddf2338696e73482ba/144fe/image.jpg","srcSet":"/static/be7732f1133bf3ddf2338696e73482ba/9d7b9/image.jpg 190w,\n/static/be7732f1133bf3ddf2338696e73482ba/144fe/image.jpg 380w","sizes":"(min-width: 380px) 380px, 100vw"},"sources":[{"srcSet":"/static/be7732f1133bf3ddf2338696e73482ba/228d6/image.webp 190w,\n/static/be7732f1133bf3ddf2338696e73482ba/6b99c/image.webp 380w","type":"image/webp","sizes":"(min-width: 380px) 380px, 100vw"}]},"width":380,"height":290},"ImageSharp_hero":{"layout":"constrained","backgroundColor":"#281818","images":{"fallback":{"src":"/static/be7732f1133bf3ddf2338696e73482ba/7a1ff/image.jpg","srcSet":"/static/be7732f1133bf3ddf2338696e73482ba/a6b27/image.jpg 512w,\n/static/be7732f1133bf3ddf2338696e73482ba/7a1ff/image.jpg 1024w","sizes":"(min-width: 1024px) 1024px, 100vw"},"sources":[{"srcSet":"/static/be7732f1133bf3ddf2338696e73482ba/99476/image.webp 512w,\n/static/be7732f1133bf3ddf2338696e73482ba/251f6/image.webp 1024w","type":"image/webp","sizes":"(min-width: 1024px) 1024px, 100vw"}]},"width":1600,"height":650}}},{"id":"91aec7c2-173a-5849-b9e2-0a20cb9089b2","title":"I Tried Everything For My Quarantine Insomnia","slug":"/i-tried-everything-for-my-quarantine-insomnia/","link":null,"excerpt":"Lorem markdownum transitque nondum, Peliaeque at poterat exegit, urbis quo;\ntibi. Cursus mecum adit…","timeToRead":1,"featured":true,"thumbnailText":null,"date":"April 16, 2020","category":{"id":"e6164999-1c03-5290-8ada-6c09d59abfa8","name":"Umbra'kor","slug":"/category/umbrakor/","color":"#8da0cb","icon":"/static/20e8870720ef3d1e8449d9692e085f68/umbrakor.svg"},"author":null,"thumbnail":{"__typename":"ImageSharp","ImageSharp_vertical":{"layout":"constrained","backgroundColor":"#180808","images":{"fallback":{"src":"/static/ef039c9dd0d8e8042ea796bad211e8fe/144fe/image.jpg","srcSet":"/static/ef039c9dd0d8e8042ea796bad211e8fe/9d7b9/image.jpg 190w,\n/static/ef039c9dd0d8e8042ea796bad211e8fe/144fe/image.jpg 380w","sizes":"(min-width: 380px) 380px, 100vw"},"sources":[{"srcSet":"/static/ef039c9dd0d8e8042ea796bad211e8fe/228d6/image.webp 190w,\n/static/ef039c9dd0d8e8042ea796bad211e8fe/6b99c/image.webp 380w","type":"image/webp","sizes":"(min-width: 380px) 380px, 100vw"}]},"width":380,"height":290},"ImageSharp_hero":{"layout":"constrained","backgroundColor":"#180808","images":{"fallback":{"src":"/static/ef039c9dd0d8e8042ea796bad211e8fe/fcdd8/image.jpg","srcSet":"/static/ef039c9dd0d8e8042ea796bad211e8fe/26e55/image.jpg 768w,\n/static/ef039c9dd0d8e8042ea796bad211e8fe/fcdd8/image.jpg 1536w","sizes":"(min-width: 1536px) 1536px, 100vw"},"sources":[{"srcSet":"/static/ef039c9dd0d8e8042ea796bad211e8fe/8424c/image.webp 768w,\n/static/ef039c9dd0d8e8042ea796bad211e8fe/7710d/image.webp 1536w","type":"image/webp","sizes":"(min-width: 1536px) 1536px, 100vw"}]},"width":1600,"height":650}}},{"id":"e8eb0236-fea1-55ad-bfb3-0b14a61c6479","title":"Why I’m Binning A Wedding Diet","slug":"/why-im-binning-a-wedding-diet/","link":null,"excerpt":"Primo in altis pelle alumnae Lorem markdownum obvius in seque opus, est bicorni forte; laeva…","timeToRead":1,"featured":null,"thumbnailText":null,"date":"April 16, 2020","category":{"id":"e6164999-1c03-5290-8ada-6c09d59abfa8","name":"Umbra'kor","slug":"/category/umbrakor/","color":"#8da0cb","icon":"/static/20e8870720ef3d1e8449d9692e085f68/umbrakor.svg"},"author":null,"thumbnail":{"__typename":"ImageSharp","ImageSharp_vertical":{"layout":"constrained","backgroundColor":"#080808","images":{"fallback":{"src":"/static/9def23d03e0dc3705b7c3426eee0b31a/144fe/image.jpg","srcSet":"/static/9def23d03e0dc3705b7c3426eee0b31a/9d7b9/image.jpg 190w,\n/static/9def23d03e0dc3705b7c3426eee0b31a/144fe/image.jpg 380w","sizes":"(min-width: 380px) 380px, 100vw"},"sources":[{"srcSet":"/static/9def23d03e0dc3705b7c3426eee0b31a/228d6/image.webp 190w,\n/static/9def23d03e0dc3705b7c3426eee0b31a/6b99c/image.webp 380w","type":"image/webp","sizes":"(min-width: 380px) 380px, 100vw"}]},"width":380,"height":290},"ImageSharp_hero":{"layout":"constrained","backgroundColor":"#080808","images":{"fallback":{"src":"/static/9def23d03e0dc3705b7c3426eee0b31a/7a1ff/image.jpg","srcSet":"/static/9def23d03e0dc3705b7c3426eee0b31a/a6b27/image.jpg 512w,\n/static/9def23d03e0dc3705b7c3426eee0b31a/7a1ff/image.jpg 1024w","sizes":"(min-width: 1024px) 1024px, 100vw"},"sources":[{"srcSet":"/static/9def23d03e0dc3705b7c3426eee0b31a/99476/image.webp 512w,\n/static/9def23d03e0dc3705b7c3426eee0b31a/251f6/image.webp 1024w","type":"image/webp","sizes":"(min-width: 1024px) 1024px, 100vw"}]},"width":1600,"height":650}}},{"id":"b0fcfdfc-0c6c-574c-9e47-17e3cde45844","title":"This Creamy Easy To Make Nut Milk Is Ideal For Coffee","slug":"/this-creamy-easy-to-make-nut-milk-is-ideal-for-coffee/","link":null,"excerpt":"Lorem markdownum quisque caeli, aura niger  molitur tangam  licebit, cum quo ut\nharenae pauper, eras…","timeToRead":1,"featured":null,"thumbnailText":null,"date":"April 16, 2020","category":{"id":"e6164999-1c03-5290-8ada-6c09d59abfa8","name":"Umbra'kor","slug":"/category/umbrakor/","color":"#8da0cb","icon":"/static/20e8870720ef3d1e8449d9692e085f68/umbrakor.svg"},"author":null,"thumbnail":{"__typename":"ImageSharp","ImageSharp_vertical":{"layout":"constrained","backgroundColor":"#181818","images":{"fallback":{"src":"/static/fe68665f771f20a60e0239c092e7a465/144fe/image.jpg","srcSet":"/static/fe68665f771f20a60e0239c092e7a465/9d7b9/image.jpg 190w,\n/static/fe68665f771f20a60e0239c092e7a465/144fe/image.jpg 380w","sizes":"(min-width: 380px) 380px, 100vw"},"sources":[{"srcSet":"/static/fe68665f771f20a60e0239c092e7a465/228d6/image.webp 190w,\n/static/fe68665f771f20a60e0239c092e7a465/6b99c/image.webp 380w","type":"image/webp","sizes":"(min-width: 380px) 380px, 100vw"}]},"width":380,"height":290},"ImageSharp_hero":{"layout":"constrained","backgroundColor":"#181818","images":{"fallback":{"src":"/static/fe68665f771f20a60e0239c092e7a465/fcdd8/image.jpg","srcSet":"/static/fe68665f771f20a60e0239c092e7a465/26e55/image.jpg 768w,\n/static/fe68665f771f20a60e0239c092e7a465/fcdd8/image.jpg 1536w","sizes":"(min-width: 1536px) 1536px, 100vw"},"sources":[{"srcSet":"/static/fe68665f771f20a60e0239c092e7a465/8424c/image.webp 768w,\n/static/fe68665f771f20a60e0239c092e7a465/7710d/image.webp 1536w","type":"image/webp","sizes":"(min-width: 1536px) 1536px, 100vw"}]},"width":1600,"height":650}}},{"id":"2f7fea57-48e0-51a1-a806-3fa5ef003127","title":"When To Take Magnesium At Night Based On Your Sleep Pattern","slug":"/when-to-take-magnesium-at-night-based-on-your-sleep-pattern/","link":null,"excerpt":"Lorem markdownum illic venturi instructa nobis Echidnae,  cum  quid magna\nfatebor. Levat placetque…","timeToRead":1,"featured":null,"thumbnailText":null,"date":"April 16, 2020","category":{"id":"e6164999-1c03-5290-8ada-6c09d59abfa8","name":"Umbra'kor","slug":"/category/umbrakor/","color":"#8da0cb","icon":"/static/20e8870720ef3d1e8449d9692e085f68/umbrakor.svg"},"author":null,"thumbnail":{"__typename":"ImageSharp","ImageSharp_vertical":{"layout":"constrained","backgroundColor":"#080808","images":{"fallback":{"src":"/static/a603a5c1e47fb2b227aadcbc2db6a5ff/144fe/image.jpg","srcSet":"/static/a603a5c1e47fb2b227aadcbc2db6a5ff/9d7b9/image.jpg 190w,\n/static/a603a5c1e47fb2b227aadcbc2db6a5ff/144fe/image.jpg 380w","sizes":"(min-width: 380px) 380px, 100vw"},"sources":[{"srcSet":"/static/a603a5c1e47fb2b227aadcbc2db6a5ff/228d6/image.webp 190w,\n/static/a603a5c1e47fb2b227aadcbc2db6a5ff/6b99c/image.webp 380w","type":"image/webp","sizes":"(min-width: 380px) 380px, 100vw"}]},"width":380,"height":290},"ImageSharp_hero":{"layout":"constrained","backgroundColor":"#080808","images":{"fallback":{"src":"/static/a603a5c1e47fb2b227aadcbc2db6a5ff/7a1ff/image.jpg","srcSet":"/static/a603a5c1e47fb2b227aadcbc2db6a5ff/a6b27/image.jpg 512w,\n/static/a603a5c1e47fb2b227aadcbc2db6a5ff/7a1ff/image.jpg 1024w","sizes":"(min-width: 1024px) 1024px, 100vw"},"sources":[{"srcSet":"/static/a603a5c1e47fb2b227aadcbc2db6a5ff/99476/image.webp 512w,\n/static/a603a5c1e47fb2b227aadcbc2db6a5ff/251f6/image.webp 1024w","type":"image/webp","sizes":"(min-width: 1024px) 1024px, 100vw"}]},"width":1600,"height":650}}},{"id":"be6e303d-debe-5ed1-bdc0-b914a915af80","title":"This Vegan Ranch Dip Is Nutritious","slug":"/this-vegan-ranch-dip-is-nutritious/","link":null,"excerpt":"Lorem markdownum illic venturi instructa nobis Echidnae,  cum  quid magna\nfatebor. Levat placetque…","timeToRead":1,"featured":null,"thumbnailText":null,"date":"April 16, 2020","category":{"id":"e6164999-1c03-5290-8ada-6c09d59abfa8","name":"Umbra'kor","slug":"/category/umbrakor/","color":"#8da0cb","icon":"/static/20e8870720ef3d1e8449d9692e085f68/umbrakor.svg"},"author":null,"thumbnail":{"__typename":"ImageSharp","ImageSharp_vertical":{"layout":"constrained","backgroundColor":"#281818","images":{"fallback":{"src":"/static/25fa3ddef9729a5cebe4e8c7c18225d5/144fe/image.jpg","srcSet":"/static/25fa3ddef9729a5cebe4e8c7c18225d5/9d7b9/image.jpg 190w,\n/static/25fa3ddef9729a5cebe4e8c7c18225d5/144fe/image.jpg 380w","sizes":"(min-width: 380px) 380px, 100vw"},"sources":[{"srcSet":"/static/25fa3ddef9729a5cebe4e8c7c18225d5/228d6/image.webp 190w,\n/static/25fa3ddef9729a5cebe4e8c7c18225d5/6b99c/image.webp 380w","type":"image/webp","sizes":"(min-width: 380px) 380px, 100vw"}]},"width":380,"height":290},"ImageSharp_hero":{"layout":"constrained","backgroundColor":"#281818","images":{"fallback":{"src":"/static/25fa3ddef9729a5cebe4e8c7c18225d5/7a1ff/image.jpg","srcSet":"/static/25fa3ddef9729a5cebe4e8c7c18225d5/a6b27/image.jpg 512w,\n/static/25fa3ddef9729a5cebe4e8c7c18225d5/7a1ff/image.jpg 1024w","sizes":"(min-width: 1024px) 1024px, 100vw"},"sources":[{"srcSet":"/static/25fa3ddef9729a5cebe4e8c7c18225d5/99476/image.webp 512w,\n/static/25fa3ddef9729a5cebe4e8c7c18225d5/251f6/image.webp 1024w","type":"image/webp","sizes":"(min-width: 1024px) 1024px, 100vw"}]},"width":1600,"height":650}}}],"pageInfo":{"pageCount":7,"hasPreviousPage":true,"hasNextPage":true,"currentPage":5},"totalCount":38}},"pageContext":{"slug":"/tag/business/","limit":6,"skip":24,"collectionType":"{tags: {slug: SELECT}","paginatePostsPage":false,"basePath":"/","services":{"algolia":false,"mailchimp":false,"disqus":false,"graphComment":false,"facebookComment":false},"siteUrl":null,"mobileMenu":{"title":"Regions","items":[{"name":"Astalon","slug":"/category/astalon/"},{"name":"Contian","slug":"/category/contian/"},{"name":"Elenoria","slug":"/category/elenoria/"},{"name":"Frostgard","slug":"/category/frostgard/"},{"name":"Grukmar","slug":"/category/grukmar/"},{"name":"Lumeshire","slug":"/category/lumeshire/"},{"name":"StoneHeld","slug":"/category/stoneheld/"},{"name":"Wyrmreach","slug":"/category/wyrmreach/"},{"name":"Umbra'kor","slug":"/category/umbrakor/"}]},"darkMode":true,"includeExcerpt":true,"includeTimeToRead":true,"includeTableOfContents":true,"imageQuality":75}},"staticQueryHashes":["1992822086","267426511","2818472511","2918496967","4235339838","4240507859","808336098"],"slicesMap":{}}